[0.060s] Invoking command in '/home/salih/ros2_ws/build/cpp_srvcli': CMAKE_PREFIX_PATH=${CMAKE_PREFIX_PATH}:/home/salih/ros2_ws/install/py_srvcli:/home/salih/ros2_ws/install/py_pubsub:/home/salih/ros2_ws/install/examples_rclpy_minimal_subscriber:/home/salih/ros2_ws/install/examples_rclpy_minimal_service:/home/salih/ros2_ws/install/examples_rclpy_minimal_publisher:/home/salih/ros2_ws/install/examples_rclpy_minimal_client:/home/salih/ros2_ws/install/examples_rclpy_minimal_action_server:/home/salih/ros2_ws/install/examples_rclpy_minimal_action_client:/home/salih/ros2_ws/install/examples_rclpy_executors:/opt/ros/foxy COMP_WORDBREAKS=
"'><=;|&( /usr/bin/cmake --build /home/salih/ros2_ws/build/cpp_srvcli -- -j8 -l8
[0.551s] [ 50%] Built target client
[0.551s] [100%] Built target server
[0.555s] Invoked command in '/home/salih/ros2_ws/build/cpp_srvcli' returned '0': CMAKE_PREFIX_PATH=${CMAKE_PREFIX_PATH}:/home/salih/ros2_ws/install/py_srvcli:/home/salih/ros2_ws/install/py_pubsub:/home/salih/ros2_ws/install/examples_rclpy_minimal_subscriber:/home/salih/ros2_ws/install/examples_rclpy_minimal_service:/home/salih/ros2_ws/install/examples_rclpy_minimal_publisher:/home/salih/ros2_ws/install/examples_rclpy_minimal_client:/home/salih/ros2_ws/install/examples_rclpy_minimal_action_server:/home/salih/ros2_ws/install/examples_rclpy_minimal_action_client:/home/salih/ros2_ws/install/examples_rclpy_executors:/opt/ros/foxy COMP_WORDBREAKS=
"'><=;|&( /usr/bin/cmake --build /home/salih/ros2_ws/build/cpp_srvcli -- -j8 -l8
[0.599s] Invoking command in '/home/salih/ros2_ws/build/cpp_srvcli': CMAKE_PREFIX_PATH=${CMAKE_PREFIX_PATH}:/home/salih/ros2_ws/install/py_srvcli:/home/salih/ros2_ws/install/py_pubsub:/home/salih/ros2_ws/install/examples_rclpy_minimal_subscriber:/home/salih/ros2_ws/install/examples_rclpy_minimal_service:/home/salih/ros2_ws/install/examples_rclpy_minimal_publisher:/home/salih/ros2_ws/install/examples_rclpy_minimal_client:/home/salih/ros2_ws/install/examples_rclpy_minimal_action_server:/home/salih/ros2_ws/install/examples_rclpy_minimal_action_client:/home/salih/ros2_ws/install/examples_rclpy_executors:/opt/ros/foxy COMP_WORDBREAKS=
"'><=;|&( /usr/bin/cmake --install /home/salih/ros2_ws/build/cpp_srvcli
[0.613s] -- Install configuration: ""
[0.613s] -- Execute custom install script
[0.613s] -- Up-to-date symlink: /home/salih/ros2_ws/install/cpp_srvcli/lib/cpp_srvcli/server
[0.613s] -- Up-to-date symlink: /home/salih/ros2_ws/install/cpp_srvcli/lib/cpp_srvcli/client
[0.613s] -- Up-to-date symlink: /home/salih/ros2_ws/install/cpp_srvcli/share/ament_index/resource_index/package_run_dependencies/cpp_srvcli
[0.613s] -- Up-to-date symlink: /home/salih/ros2_ws/install/cpp_srvcli/share/ament_index/resource_index/parent_prefix_path/cpp_srvcli
[0.613s] -- Up-to-date symlink: /home/salih/ros2_ws/install/cpp_srvcli/share/cpp_srvcli/environment/ament_prefix_path.sh
[0.614s] -- Up-to-date symlink: /home/salih/ros2_ws/install/cpp_srvcli/share/cpp_srvcli/environment/ament_prefix_path.dsv
[0.614s] -- Up-to-date symlink: /home/salih/ros2_ws/install/cpp_srvcli/share/cpp_srvcli/environment/path.sh
[0.614s] -- Up-to-date symlink: /home/salih/ros2_ws/install/cpp_srvcli/share/cpp_srvcli/environment/path.dsv
[0.614s] -- Up-to-date symlink: /home/salih/ros2_ws/install/cpp_srvcli/share/cpp_srvcli/local_setup.bash
[0.614s] -- Up-to-date symlink: /home/salih/ros2_ws/install/cpp_srvcli/share/cpp_srvcli/local_setup.sh
[0.614s] -- Up-to-date symlink: /home/salih/ros2_ws/install/cpp_srvcli/share/cpp_srvcli/local_setup.zsh
[0.614s] -- Up-to-date symlink: /home/salih/ros2_ws/install/cpp_srvcli/share/cpp_srvcli/local_setup.dsv
[0.614s] -- Symlinking: /home/salih/ros2_ws/install/cpp_srvcli/share/cpp_srvcli/package.dsv
[0.634s] -- Up-to-date symlink: /home/salih/ros2_ws/install/cpp_srvcli/share/ament_index/resource_index/packages/cpp_srvcli
[0.634s] -- Up-to-date symlink: /home/salih/ros2_ws/install/cpp_srvcli/share/cpp_srvcli/cmake/cpp_srvcliConfig.cmake
[0.634s] -- Up-to-date symlink: /home/salih/ros2_ws/install/cpp_srvcli/share/cpp_srvcli/cmake/cpp_srvcliConfig-version.cmake
[0.634s] -- Up-to-date symlink: /home/salih/ros2_ws/install/cpp_srvcli/share/cpp_srvcli/package.xml
[0.661s] Invoked command in '/home/salih/ros2_ws/build/cpp_srvcli' returned '0': CMAKE_PREFIX_PATH=${CMAKE_PREFIX_PATH}:/home/salih/ros2_ws/install/py_srvcli:/home/salih/ros2_ws/install/py_pubsub:/home/salih/ros2_ws/install/examples_rclpy_minimal_subscriber:/home/salih/ros2_ws/install/examples_rclpy_minimal_service:/home/salih/ros2_ws/install/examples_rclpy_minimal_publisher:/home/salih/ros2_ws/install/examples_rclpy_minimal_client:/home/salih/ros2_ws/install/examples_rclpy_minimal_action_server:/home/salih/ros2_ws/install/examples_rclpy_minimal_action_client:/home/salih/ros2_ws/install/examples_rclpy_executors:/opt/ros/foxy COMP_WORDBREAKS=
"'><=;|&( /usr/bin/cmake --install /home/salih/ros2_ws/build/cpp_srvcli
