[0.000000] (-) TimerEvent: {}
[0.000100] (-) JobUnselected: {'identifier': 'examples_rclcpp_minimal_action_client'}
[0.000158] (-) JobUnselected: {'identifier': 'examples_rclcpp_minimal_action_server'}
[0.000440] (-) JobUnselected: {'identifier': 'examples_rclcpp_minimal_client'}
[0.000602] (-) JobUnselected: {'identifier': 'examples_rclcpp_minimal_composition'}
[0.000922] (-) JobUnselected: {'identifier': 'examples_rclcpp_minimal_publisher'}
[0.000965] (-) JobUnselected: {'identifier': 'examples_rclcpp_minimal_service'}
[0.000988] (-) JobUnselected: {'identifier': 'examples_rclcpp_minimal_subscriber'}
[0.001016] (-) JobUnselected: {'identifier': 'examples_rclcpp_minimal_timer'}
[0.001040] (-) JobUnselected: {'identifier': 'examples_rclcpp_multithreaded_executor'}
[0.001352] (-) JobUnselected: {'identifier': 'examples_rclpy_executors'}
[0.001728] (-) JobUnselected: {'identifier': 'examples_rclpy_minimal_action_client'}
[0.001779] (-) JobUnselected: {'identifier': 'examples_rclpy_minimal_action_server'}
[0.001807] (-) JobUnselected: {'identifier': 'examples_rclpy_minimal_client'}
[0.001853] (-) JobUnselected: {'identifier': 'examples_rclpy_minimal_publisher'}
[0.001914] (-) JobUnselected: {'identifier': 'examples_rclpy_minimal_service'}
[0.001972] (-) JobUnselected: {'identifier': 'examples_rclpy_minimal_subscriber'}
[0.002008] (-) JobUnselected: {'identifier': 'my_package'}
[0.002034] (-) JobUnselected: {'identifier': 'turtlesim'}
[0.002063] (cpp_pubsub) JobQueued: {'identifier': 'cpp_pubsub', 'dependencies': OrderedDict()}
[0.002099] (cpp_pubsub) JobStarted: {'identifier': 'cpp_pubsub'}
[0.012432] (cpp_pubsub) JobProgress: {'identifier': 'cpp_pubsub', 'progress': 'cmake'}
[0.013346] (cpp_pubsub) JobProgress: {'identifier': 'cpp_pubsub', 'progress': 'build'}
[0.014037] (cpp_pubsub) Command: {'cmd': ['/usr/bin/cmake', '--build', '/home/salih/ros2_ws/build/cpp_pubsub', '--', '-j8', '-l8'], 'cwd': '/home/salih/ros2_ws/build/cpp_pubsub', 'env': OrderedDict([('LESSOPEN', '| /usr/bin/lesspipe %s'), ('HISTFILESIZE', ''), ('LANGUAGE', 'fr_FR'), ('USER', 'salih'), ('XDG_SEAT', 'seat0'), ('COMP_WORDBREAKS', '\n"\'><=;|&('), ('SSH_AGENT_PID', '1248'), ('XDG_SESSION_TYPE', 'x11'), ('COMPIZ_CONFIG_PROFILE', 'mint'), ('SHLVL', '1'), ('LD_LIBRARY_PATH', '/home/salih/ros2_ws/install/turtlesim/lib:/home/salih/ros2_ws/install/examples_rclcpp_minimal_composition/lib:/usr/lib/x86_64-linux-gnu/gazebo-11/plugins:/opt/ros/foxy/opt/yaml_cpp_vendor/lib:/opt/ros/foxy/opt/rviz_ogre_vendor/lib:/opt/ros/foxy/lib/x86_64-linux-gnu:/opt/ros/foxy/lib'), ('HISTIGNORE', '&:[ ]*:exit:ls:bg:fg:history:clear'), ('LESS', '-R'), ('HOME', '/home/salih'), ('OLDPWD', '/home/salih/ros2_ws/src'), ('DESKTOP_SESSION', 'xfce'), ('LSCOLORS', 'Gxfxcxdxdxegedabagacad'), ('ROS_PYTHON_VERSION', '3'), ('GTK_MODULES', 'gail:atk-bridge'), ('XDG_SEAT_PATH', '/org/freedesktop/DisplayManager/Seat0'), ('PAGER', 'less'), ('LC_MONETARY', 'fr_FR.UTF-8'), ('LC_CTYPE', 'fr_FR.UTF-8'), ('DBUS_SESSION_BUS_ADDRESS', 'unix:path=/run/user/1000/bus'), ('COLORTERM', 'truecolor'), ('TERMINATOR_DBUS_NAME', 'net.tenshu.Terminator21a9d5db22c73a993ff0b42f64b396873'), ('_colcon_cd_root', '/opt/ros/humble/'), ('QT_QPA_PLATFORMTHEME', 'qt5ct'), ('COLCON_PREFIX_PATH', '/home/salih/ros2_ws/install'), ('ROS_DISTRO', 'foxy'), ('LOGNAME', 'salih'), ('OSH', '/home/salih/.oh-my-bash'), ('_', '/usr/bin/colcon'), ('ROS_VERSION', '2'), ('XDG_SESSION_CLASS', 'user'), ('CLUTTER_BACKEND', 'x11'), ('TERM', 'xterm-256color'), ('XDG_SESSION_ID', 'c1'), ('ROS_LOCALHOST_ONLY', '1'), ('PATH', '/opt/ros/foxy/bin:/usr/local/sbin:/usr/local/bin:/usr/sbin:/usr/bin:/sbin:/bin:/usr/games:/usr/local/games:/snap/bin:/opt/anaconda3/bin'), ('SESSION_MANAGER', 'local/salih-MacBookPro:@/tmp/.ICE-unix/1169,unix/salih-MacBookPro:/tmp/.ICE-unix/1169'), ('GDM_LANG', 'fr_FR'), ('GTK3_MODULES', 'xapp-gtk3-module'), ('XDG_SESSION_PATH', '/org/freedesktop/DisplayManager/Session0'), ('XDG_MENU_PREFIX', 'xfce-'), ('LC_ADDRESS', 'fr_FR.UTF-8'), ('XDG_RUNTIME_DIR', '/run/user/1000'), ('DISPLAY', ':0.0'), ('HISTSIZE', ''), ('TERMINATOR_DBUS_PATH', '/net/tenshu/Terminator2'), ('LANG', 'fr_FR.UTF-8'), ('XDG_CURRENT_DESKTOP', 'XFCE'), ('LC_TELEPHONE', 'fr_FR.UTF-8'), ('XDG_SESSION_DESKTOP', 'xfce'), ('XAUTHORITY', '/home/salih/.Xauthority'), ('LS_COLORS', 'rs=0:di=01;34:ln=01;36:mh=00:pi=40;33:so=01;35:do=01;35:bd=40;33;01:cd=40;33;01:or=40;31;01:mi=00:su=37;41:sg=30;43:ca=30;41:tw=30;42:ow=34;42:st=37;44:ex=01;32:*.tar=01;31:*.tgz=01;31:*.arc=01;31:*.arj=01;31:*.taz=01;31:*.lha=01;31:*.lz4=01;31:*.lzh=01;31:*.lzma=01;31:*.tlz=01;31:*.txz=01;31:*.tzo=01;31:*.t7z=01;31:*.zip=01;31:*.z=01;31:*.dz=01;31:*.gz=01;31:*.lrz=01;31:*.lz=01;31:*.lzo=01;31:*.xz=01;31:*.zst=01;31:*.tzst=01;31:*.bz2=01;31:*.bz=01;31:*.tbz=01;31:*.tbz2=01;31:*.tz=01;31:*.deb=01;31:*.rpm=01;31:*.jar=01;31:*.war=01;31:*.ear=01;31:*.sar=01;31:*.rar=01;31:*.alz=01;31:*.ace=01;31:*.zoo=01;31:*.cpio=01;31:*.7z=01;31:*.rz=01;31:*.cab=01;31:*.wim=01;31:*.swm=01;31:*.dwm=01;31:*.esd=01;31:*.jpg=01;35:*.jpeg=01;35:*.mjpg=01;35:*.mjpeg=01;35:*.gif=01;35:*.bmp=01;35:*.pbm=01;35:*.pgm=01;35:*.ppm=01;35:*.tga=01;35:*.xbm=01;35:*.xpm=01;35:*.tif=01;35:*.tiff=01;35:*.png=01;35:*.svg=01;35:*.svgz=01;35:*.mng=01;35:*.pcx=01;35:*.mov=01;35:*.mpg=01;35:*.mpeg=01;35:*.m2v=01;35:*.mkv=01;35:*.webm=01;35:*.ogm=01;35:*.mp4=01;35:*.m4v=01;35:*.mp4v=01;35:*.vob=01;35:*.qt=01;35:*.nuv=01;35:*.wmv=01;35:*.asf=01;35:*.rm=01;35:*.rmvb=01;35:*.flc=01;35:*.avi=01;35:*.fli=01;35:*.flv=01;35:*.gl=01;35:*.dl=01;35:*.xcf=01;35:*.xwd=01;35:*.yuv=01;35:*.cgm=01;35:*.emf=01;35:*.ogv=01;35:*.ogx=01;35:*.aac=00;36:*.au=00;36:*.flac=00;36:*.m4a=00;36:*.mid=00;36:*.midi=00;36:*.mka=00;36:*.mp3=00;36:*.mpc=00;36:*.ogg=00;36:*.ra=00;36:*.wav=00;36:*.oga=00;36:*.opus=00;36:*.spx=00;36:*.xspf=00;36:'), ('SSH_AUTH_SOCK', '/tmp/ssh-9sxRk29sIm5o/agent.1169'), ('ROS_DOMAIN_ID', '42'), ('XDG_GREETER_DATA_DIR', '/var/lib/lightdm-data/salih'), ('AMENT_PREFIX_PATH', '/home/salih/ros2_ws/install/my_package:/home/salih/ros2_ws/install/turtlesim:/home/salih/ros2_ws/install/examples_rclpy_minimal_subscriber:/home/salih/ros2_ws/install/examples_rclpy_minimal_service:/home/salih/ros2_ws/install/examples_rclpy_minimal_publisher:/home/salih/ros2_ws/install/examples_rclpy_minimal_client:/home/salih/ros2_ws/install/examples_rclpy_minimal_action_server:/home/salih/ros2_ws/install/examples_rclpy_minimal_action_client:/home/salih/ros2_ws/install/examples_rclpy_executors:/home/salih/ros2_ws/install/examples_rclcpp_multithreaded_executor:/home/salih/ros2_ws/install/examples_rclcpp_minimal_timer:/home/salih/ros2_ws/install/examples_rclcpp_minimal_subscriber:/home/salih/ros2_ws/install/examples_rclcpp_minimal_service:/home/salih/ros2_ws/install/examples_rclcpp_minimal_publisher:/home/salih/ros2_ws/install/examples_rclcpp_minimal_composition:/home/salih/ros2_ws/install/examples_rclcpp_minimal_client:/home/salih/ros2_ws/install/examples_rclcpp_minimal_action_server:/home/salih/ros2_ws/install/examples_rclcpp_minimal_action_client:/opt/ros/foxy'), ('SHELL', '/bin/bash'), ('LC_NAME', 'fr_FR.UTF-8'), ('TERMINATOR_UUID', 'urn:uuid:01a4261f-8694-4171-b7a2-2be618dc3a39'), ('QT_ACCESSIBILITY', '1'), ('GDMSESSION', 'xfce'), ('LESSCLOSE', '/usr/bin/lesspipe %s %s'), ('LC_MEASUREMENT', 'fr_FR.UTF-8'), ('LC_IDENTIFICATION', 'fr_FR.UTF-8'), ('XDG_VTNR', '7'), ('PWD', '/home/salih/ros2_ws/build/cpp_pubsub'), ('XDG_CONFIG_DIRS', '/etc/xdg/xdg-xfce:/etc/xdg:/etc/xdg'), ('XDG_DATA_DIRS', '/usr/share/xfce4:/home/salih/.local/share/flatpak/exports/share:/var/lib/flatpak/exports/share:/usr/local/share:/usr/share:/usr/share'), ('PYTHONPATH', '/home/salih/ros2_ws/install/turtlesim/lib/python3.8/site-packages:/home/salih/ros2_ws/install/examples_rclpy_minimal_subscriber/lib/python3.8/site-packages:/home/salih/ros2_ws/install/examples_rclpy_minimal_service/lib/python3.8/site-packages:/home/salih/ros2_ws/install/examples_rclpy_minimal_publisher/lib/python3.8/site-packages:/home/salih/ros2_ws/install/examples_rclpy_minimal_client/lib/python3.8/site-packages:/home/salih/ros2_ws/install/examples_rclpy_minimal_action_server/lib/python3.8/site-packages:/home/salih/ros2_ws/install/examples_rclpy_minimal_action_client/lib/python3.8/site-packages:/home/salih/ros2_ws/install/examples_rclpy_executors/lib/python3.8/site-packages:/opt/ros/foxy/lib/python3.8/site-packages'), ('LC_NUMERIC', 'fr_FR.UTF-8'), ('LC_PAPER', 'fr_FR.UTF-8'), ('COLCON', '1'), ('VTE_VERSION', '6003'), ('CMAKE_PREFIX_PATH', '/home/salih/ros2_ws/install/my_package:/home/salih/ros2_ws/install/turtlesim:/home/salih/ros2_ws/install/examples_rclcpp_multithreaded_executor:/home/salih/ros2_ws/install/examples_rclcpp_minimal_timer:/home/salih/ros2_ws/install/examples_rclcpp_minimal_subscriber:/home/salih/ros2_ws/install/examples_rclcpp_minimal_service:/home/salih/ros2_ws/install/examples_rclcpp_minimal_publisher:/home/salih/ros2_ws/install/examples_rclcpp_minimal_composition:/home/salih/ros2_ws/install/examples_rclcpp_minimal_client:/home/salih/ros2_ws/install/examples_rclcpp_minimal_action_server:/home/salih/ros2_ws/install/examples_rclcpp_minimal_action_client:/home/salih/ros2_ws/install/examples_rclpy_minimal_subscriber:/home/salih/ros2_ws/install/examples_rclpy_minimal_service:/home/salih/ros2_ws/install/examples_rclpy_minimal_publisher:/home/salih/ros2_ws/install/examples_rclpy_minimal_client:/home/salih/ros2_ws/install/examples_rclpy_minimal_action_server:/home/salih/ros2_ws/install/examples_rclpy_minimal_action_client:/home/salih/ros2_ws/install/examples_rclpy_executors:/opt/ros/foxy')]), 'shell': False}
[0.058911] (cpp_pubsub) StdoutLine: {'line': b'[ 25%] \x1b[32mBuilding CXX object CMakeFiles/listener.dir/src/subscriber_member_function.cpp.o\x1b[0m\n'}
[0.067003] (cpp_pubsub) StdoutLine: {'line': b'[ 75%] Built target talker\n'}
[0.085888] (cpp_pubsub) StderrLine: {'line': b'\x1b[01m\x1b[K/home/salih/ros2_ws/src/cpp_pubsub/src/subscriber_member_function.cpp:17:10:\x1b[m\x1b[K \x1b[01;31m\x1b[Kfatal error: \x1b[m\x1b[Krclcpp/rclcpp.hpp: No such file or directory\n'}
[0.086060] (cpp_pubsub) StderrLine: {'line': b'   17 | #include \x1b[01;31m\x1b[K"rclcpp/rclcpp.hpp"\x1b[m\x1b[K\n'}
[0.086126] (cpp_pubsub) StderrLine: {'line': b'      |          \x1b[01;31m\x1b[K^~~~~~~~~~~~~~~~~~~\x1b[m\x1b[K\n'}
[0.086183] (cpp_pubsub) StderrLine: {'line': b'compilation terminated.\n'}
[0.086893] (cpp_pubsub) StderrLine: {'line': b'make[2]: *** [CMakeFiles/listener.dir/build.make:63: CMakeFiles/listener.dir/src/subscriber_member_function.cpp.o] Error 1\n'}
[0.087112] (cpp_pubsub) StderrLine: {'line': b'make[1]: *** [CMakeFiles/Makefile2:80: CMakeFiles/listener.dir/all] Error 2\n'}
[0.087271] (cpp_pubsub) StderrLine: {'line': b'make: *** [Makefile:141: all] Error 2\n'}
[0.088755] (cpp_pubsub) CommandEnded: {'returncode': 2}
[0.099849] (-) TimerEvent: {}
[0.123081] (cpp_pubsub) JobEnded: {'identifier': 'cpp_pubsub', 'rc': 2}
[0.133681] (-) EventReactorShutdown: {}
