[1m============================= test session starts ==============================[0m
platform linux -- Python 3.8.10, pytest-4.6.9, py-1.8.1, pluggy-0.13.0
cachedir: /home/salih/ros2_ws/build/examples_rclpy_minimal_action_client/.pytest_cache
rootdir: /home/salih/ros2_ws/src/examples/rclpy, inifile: pytest.ini
plugins: ament-pep257-0.9.7, ament-flake8-0.9.7, ament-copyright-0.9.7, ament-xmllint-0.9.7, ament-lint-0.9.7, launch-testing-0.10.10, launch-testing-ros-0.11.7, colcon-core-0.11.0, cov-2.8.1
[1mcollecting ... [0m[1m
collected 3 items                                                              [0m

test/test_copyright.py [32m.[0m[36m                                                 [ 33%][0m
test/test_flake8.py [32m.[0m[36m                                                    [ 66%][0m
test/test_pep257.py [32m.[0m[36m                                                    [100%][0m

[33m=============================== warnings summary ===============================[0m
/usr/lib/python3/dist-packages/pydocstyle/config.py:6
  Warning: Using or importing the ABCs from 'collections' instead of from 'collections.abc' is deprecated since Python 3.3, and in 3.10 it will stop working

-- Docs: https://docs.pytest.org/en/latest/warnings.html
- generated xml file: /home/salih/ros2_ws/build/examples_rclpy_minimal_action_client/pytest.xml -
[33m[1m===================== 3 passed, 1 warnings in 0.33 seconds =====================[0m
