[0.000000] (-) TimerEvent: {}
[0.000578] (-) JobUnselected: {'identifier': 'cpp_pubsub'}
[0.000614] (-) JobUnselected: {'identifier': 'cpp_srvcli'}
[0.000634] (-) JobUnselected: {'identifier': 'my_package'}
[0.000829] (-) JobUnselected: {'identifier': 'py_pubsub'}
[0.000846] (-) JobUnselected: {'identifier': 'py_srvcli'}
[0.000860] (-) JobUnselected: {'identifier': 'turtlesim'}
[0.000873] (-) JobUnselected: {'identifier': 'tutorial_interfaces'}
[0.000889] (more_interfaces) JobQueued: {'identifier': 'more_interfaces', 'dependencies': OrderedDict()}
[0.001765] (more_interfaces) JobStarted: {'identifier': 'more_interfaces'}
[0.012997] (more_interfaces) JobProgress: {'identifier': 'more_interfaces', 'progress': 'cmake'}
[0.013929] (more_interfaces) Command: {'cmd': ['/usr/bin/cmake', '/home/salih/ros2_ws/src/more_interfaces', '-DCMAKE_INSTALL_PREFIX=/home/salih/ros2_ws/install/more_interfaces'], 'cwd': '/home/salih/ros2_ws/build/more_interfaces', 'env': OrderedDict([('LESSOPEN', '| /usr/bin/lesspipe %s'), ('HISTFILESIZE', ''), ('LANGUAGE', 'fr_FR'), ('USER', 'salih'), ('XDG_SEAT', 'seat0'), ('COMP_WORDBREAKS', '\n"\'><=;|&('), ('SSH_AGENT_PID', '1248'), ('XDG_SESSION_TYPE', 'x11'), ('COMPIZ_CONFIG_PROFILE', 'mint'), ('SHLVL', '1'), ('LD_LIBRARY_PATH', '/home/salih/ros2_ws/install/turtlesim/lib:/home/salih/ros2_ws/install/examples_rclcpp_minimal_composition/lib:/usr/lib/x86_64-linux-gnu/gazebo-11/plugins:/opt/ros/foxy/opt/yaml_cpp_vendor/lib:/opt/ros/foxy/opt/rviz_ogre_vendor/lib:/opt/ros/foxy/lib/x86_64-linux-gnu:/opt/ros/foxy/lib'), ('HISTIGNORE', '&:[ ]*:exit:ls:bg:fg:history:clear'), ('LESS', '-R'), ('HOME', '/home/salih'), ('OLDPWD', '/home/salih/ros2_ws/src/more_interfaces'), ('DESKTOP_SESSION', 'xfce'), ('LSCOLORS', 'Gxfxcxdxdxegedabagacad'), ('ROS_PYTHON_VERSION', '3'), ('GTK_MODULES', 'gail:atk-bridge'), ('XDG_SEAT_PATH', '/org/freedesktop/DisplayManager/Seat0'), ('PAGER', 'less'), ('LC_MONETARY', 'fr_FR.UTF-8'), ('LC_CTYPE', 'fr_FR.UTF-8'), ('DBUS_SESSION_BUS_ADDRESS', 'unix:path=/run/user/1000/bus'), ('COLORTERM', 'truecolor'), ('TERMINATOR_DBUS_NAME', 'net.tenshu.Terminator21a9d5db22c73a993ff0b42f64b396873'), ('_colcon_cd_root', '/opt/ros/humble/'), ('QT_QPA_PLATFORMTHEME', 'qt5ct'), ('COLCON_PREFIX_PATH', '/home/salih/ros2_ws/install'), ('ROS_DISTRO', 'foxy'), ('LOGNAME', 'salih'), ('OSH', '/home/salih/.oh-my-bash'), ('_', '/usr/bin/colcon'), ('ROS_VERSION', '2'), ('XDG_SESSION_CLASS', 'user'), ('CLUTTER_BACKEND', 'x11'), ('TERM', 'xterm-256color'), ('XDG_SESSION_ID', 'c1'), ('ROS_LOCALHOST_ONLY', '1'), ('PATH', '/opt/ros/foxy/bin:/usr/local/sbin:/usr/local/bin:/usr/sbin:/usr/bin:/sbin:/bin:/usr/games:/usr/local/games:/snap/bin:/opt/anaconda3/bin'), ('SESSION_MANAGER', 'local/salih-MacBookPro:@/tmp/.ICE-unix/1169,unix/salih-MacBookPro:/tmp/.ICE-unix/1169'), ('GDM_LANG', 'fr_FR'), ('GTK3_MODULES', 'xapp-gtk3-module'), ('XDG_SESSION_PATH', '/org/freedesktop/DisplayManager/Session0'), ('XDG_MENU_PREFIX', 'xfce-'), ('LC_ADDRESS', 'fr_FR.UTF-8'), ('XDG_RUNTIME_DIR', '/run/user/1000'), ('DISPLAY', ':0.0'), ('HISTSIZE', ''), ('TERMINATOR_DBUS_PATH', '/net/tenshu/Terminator2'), ('LANG', 'fr_FR.UTF-8'), ('XDG_CURRENT_DESKTOP', 'XFCE'), ('LC_TELEPHONE', 'fr_FR.UTF-8'), ('XDG_SESSION_DESKTOP', 'xfce'), ('XAUTHORITY', '/home/salih/.Xauthority'), ('LS_COLORS', 'rs=0:di=01;34:ln=01;36:mh=00:pi=40;33:so=01;35:do=01;35:bd=40;33;01:cd=40;33;01:or=40;31;01:mi=00:su=37;41:sg=30;43:ca=30;41:tw=30;42:ow=34;42:st=37;44:ex=01;32:*.tar=01;31:*.tgz=01;31:*.arc=01;31:*.arj=01;31:*.taz=01;31:*.lha=01;31:*.lz4=01;31:*.lzh=01;31:*.lzma=01;31:*.tlz=01;31:*.txz=01;31:*.tzo=01;31:*.t7z=01;31:*.zip=01;31:*.z=01;31:*.dz=01;31:*.gz=01;31:*.lrz=01;31:*.lz=01;31:*.lzo=01;31:*.xz=01;31:*.zst=01;31:*.tzst=01;31:*.bz2=01;31:*.bz=01;31:*.tbz=01;31:*.tbz2=01;31:*.tz=01;31:*.deb=01;31:*.rpm=01;31:*.jar=01;31:*.war=01;31:*.ear=01;31:*.sar=01;31:*.rar=01;31:*.alz=01;31:*.ace=01;31:*.zoo=01;31:*.cpio=01;31:*.7z=01;31:*.rz=01;31:*.cab=01;31:*.wim=01;31:*.swm=01;31:*.dwm=01;31:*.esd=01;31:*.jpg=01;35:*.jpeg=01;35:*.mjpg=01;35:*.mjpeg=01;35:*.gif=01;35:*.bmp=01;35:*.pbm=01;35:*.pgm=01;35:*.ppm=01;35:*.tga=01;35:*.xbm=01;35:*.xpm=01;35:*.tif=01;35:*.tiff=01;35:*.png=01;35:*.svg=01;35:*.svgz=01;35:*.mng=01;35:*.pcx=01;35:*.mov=01;35:*.mpg=01;35:*.mpeg=01;35:*.m2v=01;35:*.mkv=01;35:*.webm=01;35:*.ogm=01;35:*.mp4=01;35:*.m4v=01;35:*.mp4v=01;35:*.vob=01;35:*.qt=01;35:*.nuv=01;35:*.wmv=01;35:*.asf=01;35:*.rm=01;35:*.rmvb=01;35:*.flc=01;35:*.avi=01;35:*.fli=01;35:*.flv=01;35:*.gl=01;35:*.dl=01;35:*.xcf=01;35:*.xwd=01;35:*.yuv=01;35:*.cgm=01;35:*.emf=01;35:*.ogv=01;35:*.ogx=01;35:*.aac=00;36:*.au=00;36:*.flac=00;36:*.m4a=00;36:*.mid=00;36:*.midi=00;36:*.mka=00;36:*.mp3=00;36:*.mpc=00;36:*.ogg=00;36:*.ra=00;36:*.wav=00;36:*.oga=00;36:*.opus=00;36:*.spx=00;36:*.xspf=00;36:'), ('SSH_AUTH_SOCK', '/tmp/ssh-9sxRk29sIm5o/agent.1169'), ('ROS_DOMAIN_ID', '42'), ('XDG_GREETER_DATA_DIR', '/var/lib/lightdm-data/salih'), ('AMENT_PREFIX_PATH', '/home/salih/ros2_ws/install/examples_rclcpp_minimal_composition:/home/salih/ros2_ws/install/examples_rclcpp_minimal_client:/home/salih/ros2_ws/install/examples_rclcpp_minimal_action_server:/home/salih/ros2_ws/install/examples_rclcpp_minimal_action_client:/home/salih/ros2_ws/install/turtlesim:/home/salih/ros2_ws/install/py_srvcli:/home/salih/ros2_ws/install/py_pubsub:/home/salih/ros2_ws/install/my_package:/home/salih/ros2_ws/install/examples_rclpy_minimal_subscriber:/home/salih/ros2_ws/install/examples_rclpy_minimal_service:/home/salih/ros2_ws/install/examples_rclpy_minimal_publisher:/home/salih/ros2_ws/install/examples_rclpy_minimal_client:/home/salih/ros2_ws/install/examples_rclpy_minimal_action_server:/home/salih/ros2_ws/install/examples_rclpy_minimal_action_client:/home/salih/ros2_ws/install/examples_rclpy_executors:/home/salih/ros2_ws/install/examples_rclcpp_multithreaded_executor:/home/salih/ros2_ws/install/examples_rclcpp_minimal_timer:/home/salih/ros2_ws/install/examples_rclcpp_minimal_subscriber:/home/salih/ros2_ws/install/examples_rclcpp_minimal_service:/home/salih/ros2_ws/install/examples_rclcpp_minimal_publisher:/home/salih/ros2_ws/install/cpp_srvcli:/home/salih/ros2_ws/install/cpp_pubsub:/opt/ros/foxy'), ('SHELL', '/bin/bash'), ('LC_NAME', 'fr_FR.UTF-8'), ('TERMINATOR_UUID', 'urn:uuid:279cd8d0-f4f4-41b2-a1b1-b3bcffe9aea6'), ('QT_ACCESSIBILITY', '1'), ('GDMSESSION', 'xfce'), ('LESSCLOSE', '/usr/bin/lesspipe %s %s'), ('LC_MEASUREMENT', 'fr_FR.UTF-8'), ('LC_IDENTIFICATION', 'fr_FR.UTF-8'), ('XDG_VTNR', '7'), ('PWD', '/home/salih/ros2_ws/build/more_interfaces'), ('XDG_CONFIG_DIRS', '/etc/xdg/xdg-xfce:/etc/xdg:/etc/xdg'), ('XDG_DATA_DIRS', '/usr/share/xfce4:/home/salih/.local/share/flatpak/exports/share:/var/lib/flatpak/exports/share:/usr/local/share:/usr/share:/usr/share'), ('PYTHONPATH', '/home/salih/ros2_ws/build/py_srvcli:/home/salih/ros2_ws/build/py_pubsub:/home/salih/ros2_ws/build/examples_rclpy_minimal_subscriber:/home/salih/ros2_ws/build/examples_rclpy_minimal_service:/home/salih/ros2_ws/build/examples_rclpy_minimal_publisher:/home/salih/ros2_ws/build/examples_rclpy_minimal_client:/home/salih/ros2_ws/build/examples_rclpy_minimal_action_server:/home/salih/ros2_ws/build/examples_rclpy_minimal_action_client:/home/salih/ros2_ws/build/examples_rclpy_executors:/home/salih/ros2_ws/install/turtlesim/lib/python3.8/site-packages:/home/salih/ros2_ws/install/py_srvcli/lib/python3.8/site-packages:/home/salih/ros2_ws/install/py_pubsub/lib/python3.8/site-packages:/home/salih/ros2_ws/install/examples_rclpy_minimal_subscriber/lib/python3.8/site-packages:/home/salih/ros2_ws/install/examples_rclpy_minimal_service/lib/python3.8/site-packages:/home/salih/ros2_ws/install/examples_rclpy_minimal_publisher/lib/python3.8/site-packages:/home/salih/ros2_ws/install/examples_rclpy_minimal_client/lib/python3.8/site-packages:/home/salih/ros2_ws/install/examples_rclpy_minimal_action_server/lib/python3.8/site-packages:/home/salih/ros2_ws/install/examples_rclpy_minimal_action_client/lib/python3.8/site-packages:/home/salih/ros2_ws/install/examples_rclpy_executors/lib/python3.8/site-packages:/opt/ros/foxy/lib/python3.8/site-packages'), ('LC_NUMERIC', 'fr_FR.UTF-8'), ('LC_PAPER', 'fr_FR.UTF-8'), ('COLCON', '1'), ('VTE_VERSION', '6003'), ('CMAKE_PREFIX_PATH', '/home/salih/ros2_ws/install/turtlesim:/home/salih/ros2_ws/install/my_package:/home/salih/ros2_ws/install/examples_rclcpp_multithreaded_executor:/home/salih/ros2_ws/install/examples_rclcpp_minimal_timer:/home/salih/ros2_ws/install/examples_rclcpp_minimal_subscriber:/home/salih/ros2_ws/install/examples_rclcpp_minimal_service:/home/salih/ros2_ws/install/examples_rclcpp_minimal_publisher:/home/salih/ros2_ws/install/examples_rclcpp_minimal_composition:/home/salih/ros2_ws/install/examples_rclcpp_minimal_client:/home/salih/ros2_ws/install/examples_rclcpp_minimal_action_server:/home/salih/ros2_ws/install/examples_rclcpp_minimal_action_client:/home/salih/ros2_ws/install/cpp_srvcli:/home/salih/ros2_ws/install/cpp_pubsub:/home/salih/ros2_ws/install/py_srvcli:/home/salih/ros2_ws/install/py_pubsub:/home/salih/ros2_ws/install/examples_rclpy_minimal_subscriber:/home/salih/ros2_ws/install/examples_rclpy_minimal_service:/home/salih/ros2_ws/install/examples_rclpy_minimal_publisher:/home/salih/ros2_ws/install/examples_rclpy_minimal_client:/home/salih/ros2_ws/install/examples_rclpy_minimal_action_server:/home/salih/ros2_ws/install/examples_rclpy_minimal_action_client:/home/salih/ros2_ws/install/examples_rclpy_executors:/opt/ros/foxy')]), 'shell': False}
[0.029018] (more_interfaces) StdoutLine: {'line': b'-- Found ament_cmake: 0.9.11 (/opt/ros/foxy/share/ament_cmake/cmake)\n'}
[0.057585] (more_interfaces) StdoutLine: {'line': b'-- Using PYTHON_EXECUTABLE: /usr/bin/python3\n'}
[0.100013] (-) TimerEvent: {}
[0.200297] (-) TimerEvent: {}
[0.253075] (more_interfaces) StdoutLine: {'line': b'-- Found rclcpp: 2.4.2 (/opt/ros/foxy/share/rclcpp/cmake)\n'}
[0.285596] (more_interfaces) StdoutLine: {'line': b'-- Using all available rosidl_typesupport_c: rosidl_typesupport_fastrtps_c;rosidl_typesupport_introspection_c\n'}
[0.288563] (more_interfaces) StdoutLine: {'line': b'-- Found rosidl_adapter: 1.3.0 (/opt/ros/foxy/share/rosidl_adapter/cmake)\n'}
[0.300446] (-) TimerEvent: {}
[0.400827] (-) TimerEvent: {}
[0.439054] (more_interfaces) StdoutLine: {'line': b'-- Using all available rosidl_typesupport_cpp: rosidl_typesupport_fastrtps_cpp;rosidl_typesupport_introspection_cpp\n'}
[0.482322] (more_interfaces) StdoutLine: {'line': b'-- Found rmw_implementation_cmake: 1.0.3 (/opt/ros/foxy/share/rmw_implementation_cmake/cmake)\n'}
[0.484251] (more_interfaces) StdoutLine: {'line': b"-- Using RMW implementation 'rmw_fastrtps_cpp' as default\n"}
[0.500903] (-) TimerEvent: {}
[0.601098] (-) TimerEvent: {}
[0.615536] (more_interfaces) StderrLine: {'line': b'CMake Error at /opt/ros/foxy/share/rosidl_cmake/cmake/rosidl_target_interfaces.cmake:40 (message):\n'}
[0.615778] (more_interfaces) StderrLine: {'line': b"  rosidl_target_interfaces() the second argument 'more_interfaces' must be a\n"}
[0.615842] (more_interfaces) StderrLine: {'line': b'  valid target name\n'}
[0.615897] (more_interfaces) StderrLine: {'line': b'Call Stack (most recent call first):\n'}
[0.615950] (more_interfaces) StderrLine: {'line': b'  CMakeLists.txt:33 (rosidl_target_interfaces)\n'}
[0.616002] (more_interfaces) StderrLine: {'line': b'\n'}
[0.616056] (more_interfaces) StderrLine: {'line': b'\n'}
[0.616933] (more_interfaces) StdoutLine: {'line': b'-- Configuring incomplete, errors occurred!\n'}
[0.617023] (more_interfaces) StdoutLine: {'line': b'See also "/home/salih/ros2_ws/build/more_interfaces/CMakeFiles/CMakeOutput.log".\n'}
[0.617086] (more_interfaces) StdoutLine: {'line': b'See also "/home/salih/ros2_ws/build/more_interfaces/CMakeFiles/CMakeError.log".\n'}
[0.622413] (more_interfaces) CommandEnded: {'returncode': 1}
[0.645494] (more_interfaces) JobEnded: {'identifier': 'more_interfaces', 'rc': 1}
[0.656074] (-) EventReactorShutdown: {}
