[0.014s] Invoking command in '/home/salih/ros2_ws/build/cpp_parameters': CMAKE_PREFIX_PATH=${CMAKE_PREFIX_PATH}:/home/salih/ros2_ws/install/py_srvcli:/home/salih/ros2_ws/install/py_pubsub:/home/salih/ros2_ws/install/examples_rclpy_minimal_subscriber:/home/salih/ros2_ws/install/examples_rclpy_minimal_service:/home/salih/ros2_ws/install/examples_rclpy_minimal_publisher:/home/salih/ros2_ws/install/examples_rclpy_minimal_client:/home/salih/ros2_ws/install/examples_rclpy_minimal_action_server:/home/salih/ros2_ws/install/examples_rclpy_minimal_action_client:/home/salih/ros2_ws/install/examples_rclpy_executors:/opt/ros/foxy COMP_WORDBREAKS=
"'><=;|&( /usr/bin/cmake --build /home/salih/ros2_ws/build/cpp_parameters -- -j8 -l8
[0.051s] [35m[1mScanning dependencies of target minimal_param_node[0m
[0.084s] [ 50%] [32mBuilding CXX object CMakeFiles/minimal_param_node.dir/src/cpp_parameters_node.cpp.o[0m
[2.046s] [100%] [32m[1mLinking CXX executable minimal_param_node[0m
[2.148s] [100%] Built target minimal_param_node
[2.157s] Invoked command in '/home/salih/ros2_ws/build/cpp_parameters' returned '0': CMAKE_PREFIX_PATH=${CMAKE_PREFIX_PATH}:/home/salih/ros2_ws/install/py_srvcli:/home/salih/ros2_ws/install/py_pubsub:/home/salih/ros2_ws/install/examples_rclpy_minimal_subscriber:/home/salih/ros2_ws/install/examples_rclpy_minimal_service:/home/salih/ros2_ws/install/examples_rclpy_minimal_publisher:/home/salih/ros2_ws/install/examples_rclpy_minimal_client:/home/salih/ros2_ws/install/examples_rclpy_minimal_action_server:/home/salih/ros2_ws/install/examples_rclpy_minimal_action_client:/home/salih/ros2_ws/install/examples_rclpy_executors:/opt/ros/foxy COMP_WORDBREAKS=
"'><=;|&( /usr/bin/cmake --build /home/salih/ros2_ws/build/cpp_parameters -- -j8 -l8
[2.186s] Invoking command in '/home/salih/ros2_ws/build/cpp_parameters': CMAKE_PREFIX_PATH=${CMAKE_PREFIX_PATH}:/home/salih/ros2_ws/install/py_srvcli:/home/salih/ros2_ws/install/py_pubsub:/home/salih/ros2_ws/install/examples_rclpy_minimal_subscriber:/home/salih/ros2_ws/install/examples_rclpy_minimal_service:/home/salih/ros2_ws/install/examples_rclpy_minimal_publisher:/home/salih/ros2_ws/install/examples_rclpy_minimal_client:/home/salih/ros2_ws/install/examples_rclpy_minimal_action_server:/home/salih/ros2_ws/install/examples_rclpy_minimal_action_client:/home/salih/ros2_ws/install/examples_rclpy_executors:/opt/ros/foxy COMP_WORDBREAKS=
"'><=;|&( /usr/bin/cmake --install /home/salih/ros2_ws/build/cpp_parameters
[2.192s] -- Install configuration: ""
[2.193s] -- Installing: /home/salih/ros2_ws/install/cpp_parameters/lib/cpp_parameters/minimal_param_node
[2.193s] -- Set runtime path of "/home/salih/ros2_ws/install/cpp_parameters/lib/cpp_parameters/minimal_param_node" to ""
[2.193s] -- Up-to-date: /home/salih/ros2_ws/install/cpp_parameters/share/cpp_parameters/launch
[2.194s] -- Up-to-date: /home/salih/ros2_ws/install/cpp_parameters/share/cpp_parameters/launch/cpp_parameters_launch.py
[2.194s] -- Up-to-date: /home/salih/ros2_ws/install/cpp_parameters/share/ament_index/resource_index/package_run_dependencies/cpp_parameters
[2.194s] -- Up-to-date: /home/salih/ros2_ws/install/cpp_parameters/share/ament_index/resource_index/parent_prefix_path/cpp_parameters
[2.194s] -- Up-to-date: /home/salih/ros2_ws/install/cpp_parameters/share/cpp_parameters/environment/ament_prefix_path.sh
[2.194s] -- Up-to-date: /home/salih/ros2_ws/install/cpp_parameters/share/cpp_parameters/environment/ament_prefix_path.dsv
[2.194s] -- Up-to-date: /home/salih/ros2_ws/install/cpp_parameters/share/cpp_parameters/environment/path.sh
[2.194s] -- Up-to-date: /home/salih/ros2_ws/install/cpp_parameters/share/cpp_parameters/environment/path.dsv
[2.194s] -- Up-to-date: /home/salih/ros2_ws/install/cpp_parameters/share/cpp_parameters/local_setup.bash
[2.194s] -- Up-to-date: /home/salih/ros2_ws/install/cpp_parameters/share/cpp_parameters/local_setup.sh
[2.194s] -- Up-to-date: /home/salih/ros2_ws/install/cpp_parameters/share/cpp_parameters/local_setup.zsh
[2.194s] -- Up-to-date: /home/salih/ros2_ws/install/cpp_parameters/share/cpp_parameters/local_setup.dsv
[2.194s] -- Up-to-date: /home/salih/ros2_ws/install/cpp_parameters/share/cpp_parameters/package.dsv
[2.195s] -- Up-to-date: /home/salih/ros2_ws/install/cpp_parameters/share/ament_index/resource_index/packages/cpp_parameters
[2.195s] -- Up-to-date: /home/salih/ros2_ws/install/cpp_parameters/share/cpp_parameters/cmake/cpp_parametersConfig.cmake
[2.195s] -- Up-to-date: /home/salih/ros2_ws/install/cpp_parameters/share/cpp_parameters/cmake/cpp_parametersConfig-version.cmake
[2.195s] -- Up-to-date: /home/salih/ros2_ws/install/cpp_parameters/share/cpp_parameters/package.xml
[2.196s] Invoked command in '/home/salih/ros2_ws/build/cpp_parameters' returned '0': CMAKE_PREFIX_PATH=${CMAKE_PREFIX_PATH}:/home/salih/ros2_ws/install/py_srvcli:/home/salih/ros2_ws/install/py_pubsub:/home/salih/ros2_ws/install/examples_rclpy_minimal_subscriber:/home/salih/ros2_ws/install/examples_rclpy_minimal_service:/home/salih/ros2_ws/install/examples_rclpy_minimal_publisher:/home/salih/ros2_ws/install/examples_rclpy_minimal_client:/home/salih/ros2_ws/install/examples_rclpy_minimal_action_server:/home/salih/ros2_ws/install/examples_rclpy_minimal_action_client:/home/salih/ros2_ws/install/examples_rclpy_executors:/opt/ros/foxy COMP_WORDBREAKS=
"'><=;|&( /usr/bin/cmake --install /home/salih/ros2_ws/build/cpp_parameters
