[0.000000] (-) TimerEvent: {}
[0.000107] (-) JobUnselected: {'identifier': 'cpp_srvcli'}
[0.000133] (-) JobUnselected: {'identifier': 'my_package'}
[0.000157] (-) JobUnselected: {'identifier': 'py_pubsub'}
[0.000203] (-) JobUnselected: {'identifier': 'py_srvcli'}
[0.000281] (-) JobUnselected: {'identifier': 'turtlesim'}
[0.001087] (-) JobUnselected: {'identifier': 'tutorial_interfaces'}
[0.001424] (cpp_pubsub) JobQueued: {'identifier': 'cpp_pubsub', 'dependencies': OrderedDict([('tutorial_interfaces', '/home/salih/ros2_ws/install/tutorial_interfaces')])}
[0.001541] (cpp_pubsub) JobStarted: {'identifier': 'cpp_pubsub'}
[0.014741] (cpp_pubsub) JobProgress: {'identifier': 'cpp_pubsub', 'progress': 'cmake'}
[0.015472] (cpp_pubsub) JobProgress: {'identifier': 'cpp_pubsub', 'progress': 'build'}
[0.016296] (cpp_pubsub) Command: {'cmd': ['/usr/bin/cmake', '--build', '/home/salih/ros2_ws/build/cpp_pubsub', '--', '-j8', '-l8'], 'cwd': '/home/salih/ros2_ws/build/cpp_pubsub', 'env': OrderedDict([('LESSOPEN', '| /usr/bin/lesspipe %s'), ('HISTFILESIZE', ''), ('LANGUAGE', 'fr_FR'), ('USER', 'salih'), ('XDG_SEAT', 'seat0'), ('COMP_WORDBREAKS', '\n"\'><=;|&('), ('SSH_AGENT_PID', '1248'), ('XDG_SESSION_TYPE', 'x11'), ('COMPIZ_CONFIG_PROFILE', 'mint'), ('SHLVL', '1'), ('LD_LIBRARY_PATH', '/home/salih/ros2_ws/install/tutorial_interfaces/lib:/home/salih/ros2_ws/install/turtlesim/lib:/home/salih/ros2_ws/install/examples_rclcpp_minimal_composition/lib:/usr/lib/x86_64-linux-gnu/gazebo-11/plugins:/opt/ros/foxy/opt/yaml_cpp_vendor/lib:/opt/ros/foxy/opt/rviz_ogre_vendor/lib:/opt/ros/foxy/lib/x86_64-linux-gnu:/opt/ros/foxy/lib'), ('HISTIGNORE', '&:[ ]*:exit:ls:bg:fg:history:clear'), ('LESS', '-R'), ('HOME', '/home/salih'), ('OLDPWD', '/home/salih'), ('DESKTOP_SESSION', 'xfce'), ('LSCOLORS', 'Gxfxcxdxdxegedabagacad'), ('ROS_PYTHON_VERSION', '3'), ('GTK_MODULES', 'gail:atk-bridge'), ('XDG_SEAT_PATH', '/org/freedesktop/DisplayManager/Seat0'), ('PAGER', 'less'), ('LC_MONETARY', 'fr_FR.UTF-8'), ('LC_CTYPE', 'fr_FR.UTF-8'), ('DBUS_SESSION_BUS_ADDRESS', 'unix:path=/run/user/1000/bus'), ('COLORTERM', 'truecolor'), ('TERMINATOR_DBUS_NAME', 'net.tenshu.Terminator21a9d5db22c73a993ff0b42f64b396873'), ('_colcon_cd_root', '/opt/ros/humble/'), ('QT_QPA_PLATFORMTHEME', 'qt5ct'), ('COLCON_PREFIX_PATH', '/home/salih/ros2_ws/install'), ('ROS_DISTRO', 'foxy'), ('LOGNAME', 'salih'), ('OSH', '/home/salih/.oh-my-bash'), ('_', '/usr/bin/colcon'), ('ROS_VERSION', '2'), ('XDG_SESSION_CLASS', 'user'), ('CLUTTER_BACKEND', 'x11'), ('TERM', 'xterm-256color'), ('XDG_SESSION_ID', 'c1'), ('ROS_LOCALHOST_ONLY', '1'), ('PATH', '/opt/ros/foxy/bin:/usr/local/sbin:/usr/local/bin:/usr/sbin:/usr/bin:/sbin:/bin:/usr/games:/usr/local/games:/snap/bin:/opt/anaconda3/bin'), ('SESSION_MANAGER', 'local/salih-MacBookPro:@/tmp/.ICE-unix/1169,unix/salih-MacBookPro:/tmp/.ICE-unix/1169'), ('GDM_LANG', 'fr_FR'), ('GTK3_MODULES', 'xapp-gtk3-module'), ('XDG_SESSION_PATH', '/org/freedesktop/DisplayManager/Session0'), ('XDG_MENU_PREFIX', 'xfce-'), ('LC_ADDRESS', 'fr_FR.UTF-8'), ('XDG_RUNTIME_DIR', '/run/user/1000'), ('DISPLAY', ':0.0'), ('HISTSIZE', ''), ('TERMINATOR_DBUS_PATH', '/net/tenshu/Terminator2'), ('LANG', 'fr_FR.UTF-8'), ('XDG_CURRENT_DESKTOP', 'XFCE'), ('LC_TELEPHONE', 'fr_FR.UTF-8'), ('XDG_SESSION_DESKTOP', 'xfce'), ('XAUTHORITY', '/home/salih/.Xauthority'), ('LS_COLORS', 'rs=0:di=01;34:ln=01;36:mh=00:pi=40;33:so=01;35:do=01;35:bd=40;33;01:cd=40;33;01:or=40;31;01:mi=00:su=37;41:sg=30;43:ca=30;41:tw=30;42:ow=34;42:st=37;44:ex=01;32:*.tar=01;31:*.tgz=01;31:*.arc=01;31:*.arj=01;31:*.taz=01;31:*.lha=01;31:*.lz4=01;31:*.lzh=01;31:*.lzma=01;31:*.tlz=01;31:*.txz=01;31:*.tzo=01;31:*.t7z=01;31:*.zip=01;31:*.z=01;31:*.dz=01;31:*.gz=01;31:*.lrz=01;31:*.lz=01;31:*.lzo=01;31:*.xz=01;31:*.zst=01;31:*.tzst=01;31:*.bz2=01;31:*.bz=01;31:*.tbz=01;31:*.tbz2=01;31:*.tz=01;31:*.deb=01;31:*.rpm=01;31:*.jar=01;31:*.war=01;31:*.ear=01;31:*.sar=01;31:*.rar=01;31:*.alz=01;31:*.ace=01;31:*.zoo=01;31:*.cpio=01;31:*.7z=01;31:*.rz=01;31:*.cab=01;31:*.wim=01;31:*.swm=01;31:*.dwm=01;31:*.esd=01;31:*.jpg=01;35:*.jpeg=01;35:*.mjpg=01;35:*.mjpeg=01;35:*.gif=01;35:*.bmp=01;35:*.pbm=01;35:*.pgm=01;35:*.ppm=01;35:*.tga=01;35:*.xbm=01;35:*.xpm=01;35:*.tif=01;35:*.tiff=01;35:*.png=01;35:*.svg=01;35:*.svgz=01;35:*.mng=01;35:*.pcx=01;35:*.mov=01;35:*.mpg=01;35:*.mpeg=01;35:*.m2v=01;35:*.mkv=01;35:*.webm=01;35:*.ogm=01;35:*.mp4=01;35:*.m4v=01;35:*.mp4v=01;35:*.vob=01;35:*.qt=01;35:*.nuv=01;35:*.wmv=01;35:*.asf=01;35:*.rm=01;35:*.rmvb=01;35:*.flc=01;35:*.avi=01;35:*.fli=01;35:*.flv=01;35:*.gl=01;35:*.dl=01;35:*.xcf=01;35:*.xwd=01;35:*.yuv=01;35:*.cgm=01;35:*.emf=01;35:*.ogv=01;35:*.ogx=01;35:*.aac=00;36:*.au=00;36:*.flac=00;36:*.m4a=00;36:*.mid=00;36:*.midi=00;36:*.mka=00;36:*.mp3=00;36:*.mpc=00;36:*.ogg=00;36:*.ra=00;36:*.wav=00;36:*.oga=00;36:*.opus=00;36:*.spx=00;36:*.xspf=00;36:'), ('SSH_AUTH_SOCK', '/tmp/ssh-9sxRk29sIm5o/agent.1169'), ('ROS_DOMAIN_ID', '42'), ('XDG_GREETER_DATA_DIR', '/var/lib/lightdm-data/salih'), ('AMENT_PREFIX_PATH', '/home/salih/ros2_ws/install/tutorial_interfaces:/home/salih/ros2_ws/install/examples_rclcpp_minimal_composition:/home/salih/ros2_ws/install/examples_rclcpp_minimal_client:/home/salih/ros2_ws/install/examples_rclcpp_minimal_action_server:/home/salih/ros2_ws/install/examples_rclcpp_minimal_action_client:/home/salih/ros2_ws/install/turtlesim:/home/salih/ros2_ws/install/py_srvcli:/home/salih/ros2_ws/install/py_pubsub:/home/salih/ros2_ws/install/my_package:/home/salih/ros2_ws/install/examples_rclpy_minimal_subscriber:/home/salih/ros2_ws/install/examples_rclpy_minimal_service:/home/salih/ros2_ws/install/examples_rclpy_minimal_publisher:/home/salih/ros2_ws/install/examples_rclpy_minimal_client:/home/salih/ros2_ws/install/examples_rclpy_minimal_action_server:/home/salih/ros2_ws/install/examples_rclpy_minimal_action_client:/home/salih/ros2_ws/install/examples_rclpy_executors:/home/salih/ros2_ws/install/examples_rclcpp_multithreaded_executor:/home/salih/ros2_ws/install/examples_rclcpp_minimal_timer:/home/salih/ros2_ws/install/examples_rclcpp_minimal_subscriber:/home/salih/ros2_ws/install/examples_rclcpp_minimal_service:/home/salih/ros2_ws/install/examples_rclcpp_minimal_publisher:/home/salih/ros2_ws/install/cpp_srvcli:/home/salih/ros2_ws/install/cpp_pubsub:/opt/ros/foxy'), ('SHELL', '/bin/bash'), ('LC_NAME', 'fr_FR.UTF-8'), ('TERMINATOR_UUID', 'urn:uuid:279cd8d0-f4f4-41b2-a1b1-b3bcffe9aea6'), ('QT_ACCESSIBILITY', '1'), ('GDMSESSION', 'xfce'), ('LESSCLOSE', '/usr/bin/lesspipe %s %s'), ('LC_MEASUREMENT', 'fr_FR.UTF-8'), ('LC_IDENTIFICATION', 'fr_FR.UTF-8'), ('XDG_VTNR', '7'), ('PWD', '/home/salih/ros2_ws/build/cpp_pubsub'), ('XDG_CONFIG_DIRS', '/etc/xdg/xdg-xfce:/etc/xdg:/etc/xdg'), ('XDG_DATA_DIRS', '/usr/share/xfce4:/home/salih/.local/share/flatpak/exports/share:/var/lib/flatpak/exports/share:/usr/local/share:/usr/share:/usr/share'), ('PYTHONPATH', '/home/salih/ros2_ws/install/tutorial_interfaces/lib/python3.8/site-packages:/home/salih/ros2_ws/build/py_srvcli:/home/salih/ros2_ws/build/py_pubsub:/home/salih/ros2_ws/build/examples_rclpy_minimal_subscriber:/home/salih/ros2_ws/build/examples_rclpy_minimal_service:/home/salih/ros2_ws/build/examples_rclpy_minimal_publisher:/home/salih/ros2_ws/build/examples_rclpy_minimal_client:/home/salih/ros2_ws/build/examples_rclpy_minimal_action_server:/home/salih/ros2_ws/build/examples_rclpy_minimal_action_client:/home/salih/ros2_ws/build/examples_rclpy_executors:/home/salih/ros2_ws/install/turtlesim/lib/python3.8/site-packages:/home/salih/ros2_ws/install/py_srvcli/lib/python3.8/site-packages:/home/salih/ros2_ws/install/py_pubsub/lib/python3.8/site-packages:/home/salih/ros2_ws/install/examples_rclpy_minimal_subscriber/lib/python3.8/site-packages:/home/salih/ros2_ws/install/examples_rclpy_minimal_service/lib/python3.8/site-packages:/home/salih/ros2_ws/install/examples_rclpy_minimal_publisher/lib/python3.8/site-packages:/home/salih/ros2_ws/install/examples_rclpy_minimal_client/lib/python3.8/site-packages:/home/salih/ros2_ws/install/examples_rclpy_minimal_action_server/lib/python3.8/site-packages:/home/salih/ros2_ws/install/examples_rclpy_minimal_action_client/lib/python3.8/site-packages:/home/salih/ros2_ws/install/examples_rclpy_executors/lib/python3.8/site-packages:/opt/ros/foxy/lib/python3.8/site-packages'), ('LC_NUMERIC', 'fr_FR.UTF-8'), ('LC_PAPER', 'fr_FR.UTF-8'), ('COLCON', '1'), ('VTE_VERSION', '6003'), ('CMAKE_PREFIX_PATH', '/home/salih/ros2_ws/install/tutorial_interfaces:/home/salih/ros2_ws/install/turtlesim:/home/salih/ros2_ws/install/my_package:/home/salih/ros2_ws/install/examples_rclcpp_multithreaded_executor:/home/salih/ros2_ws/install/examples_rclcpp_minimal_timer:/home/salih/ros2_ws/install/examples_rclcpp_minimal_subscriber:/home/salih/ros2_ws/install/examples_rclcpp_minimal_service:/home/salih/ros2_ws/install/examples_rclcpp_minimal_publisher:/home/salih/ros2_ws/install/examples_rclcpp_minimal_composition:/home/salih/ros2_ws/install/examples_rclcpp_minimal_client:/home/salih/ros2_ws/install/examples_rclcpp_minimal_action_server:/home/salih/ros2_ws/install/examples_rclcpp_minimal_action_client:/home/salih/ros2_ws/install/cpp_srvcli:/home/salih/ros2_ws/install/cpp_pubsub:/home/salih/ros2_ws/install/py_srvcli:/home/salih/ros2_ws/install/py_pubsub:/home/salih/ros2_ws/install/examples_rclpy_minimal_subscriber:/home/salih/ros2_ws/install/examples_rclpy_minimal_service:/home/salih/ros2_ws/install/examples_rclpy_minimal_publisher:/home/salih/ros2_ws/install/examples_rclpy_minimal_client:/home/salih/ros2_ws/install/examples_rclpy_minimal_action_server:/home/salih/ros2_ws/install/examples_rclpy_minimal_action_client:/home/salih/ros2_ws/install/examples_rclpy_executors:/opt/ros/foxy')]), 'shell': False}
[0.054620] (cpp_pubsub) StdoutLine: {'line': b'\x1b[35m\x1b[1mScanning dependencies of target listener\x1b[0m\n'}
[0.071444] (cpp_pubsub) StdoutLine: {'line': b'[ 50%] Built target talker\n'}
[0.096266] (cpp_pubsub) StdoutLine: {'line': b'[ 75%] \x1b[32mBuilding CXX object CMakeFiles/listener.dir/src/subscriber_member_function.cpp.o\x1b[0m\n'}
[0.099670] (-) TimerEvent: {}
[0.199967] (-) TimerEvent: {}
[0.300276] (-) TimerEvent: {}
[0.400569] (-) TimerEvent: {}
[0.500868] (-) TimerEvent: {}
[0.601155] (-) TimerEvent: {}
[0.701452] (-) TimerEvent: {}
[0.801757] (-) TimerEvent: {}
[0.902073] (-) TimerEvent: {}
[1.002373] (-) TimerEvent: {}
[1.102671] (-) TimerEvent: {}
[1.202966] (-) TimerEvent: {}
[1.303263] (-) TimerEvent: {}
[1.403553] (-) TimerEvent: {}
[1.503847] (-) TimerEvent: {}
[1.604137] (-) TimerEvent: {}
[1.704424] (-) TimerEvent: {}
[1.804731] (-) TimerEvent: {}
[1.905030] (-) TimerEvent: {}
[2.005325] (-) TimerEvent: {}
[2.105611] (-) TimerEvent: {}
[2.205896] (-) TimerEvent: {}
[2.306181] (-) TimerEvent: {}
[2.406462] (-) TimerEvent: {}
[2.506744] (-) TimerEvent: {}
[2.607028] (-) TimerEvent: {}
[2.707308] (-) TimerEvent: {}
[2.807586] (-) TimerEvent: {}
[2.907864] (-) TimerEvent: {}
[3.008147] (-) TimerEvent: {}
[3.108433] (-) TimerEvent: {}
[3.208710] (-) TimerEvent: {}
[3.308999] (-) TimerEvent: {}
[3.409279] (-) TimerEvent: {}
[3.509554] (-) TimerEvent: {}
[3.609939] (-) TimerEvent: {}
[3.710440] (-) TimerEvent: {}
[3.810924] (-) TimerEvent: {}
[3.911392] (-) TimerEvent: {}
[4.011778] (-) TimerEvent: {}
[4.112084] (-) TimerEvent: {}
[4.122533] (cpp_pubsub) StdoutLine: {'line': b'[100%] \x1b[32m\x1b[1mLinking CXX executable listener\x1b[0m\n'}
[4.212237] (-) TimerEvent: {}
[4.312656] (-) TimerEvent: {}
[4.318613] (cpp_pubsub) StdoutLine: {'line': b'[100%] Built target listener\n'}
[4.327267] (cpp_pubsub) CommandEnded: {'returncode': 0}
[4.348315] (cpp_pubsub) JobProgress: {'identifier': 'cpp_pubsub', 'progress': 'install'}
[4.358109] (cpp_pubsub) Command: {'cmd': ['/usr/bin/cmake', '--install', '/home/salih/ros2_ws/build/cpp_pubsub'], 'cwd': '/home/salih/ros2_ws/build/cpp_pubsub', 'env': OrderedDict([('LESSOPEN', '| /usr/bin/lesspipe %s'), ('HISTFILESIZE', ''), ('LANGUAGE', 'fr_FR'), ('USER', 'salih'), ('XDG_SEAT', 'seat0'), ('COMP_WORDBREAKS', '\n"\'><=;|&('), ('SSH_AGENT_PID', '1248'), ('XDG_SESSION_TYPE', 'x11'), ('COMPIZ_CONFIG_PROFILE', 'mint'), ('SHLVL', '1'), ('LD_LIBRARY_PATH', '/home/salih/ros2_ws/install/tutorial_interfaces/lib:/home/salih/ros2_ws/install/turtlesim/lib:/home/salih/ros2_ws/install/examples_rclcpp_minimal_composition/lib:/usr/lib/x86_64-linux-gnu/gazebo-11/plugins:/opt/ros/foxy/opt/yaml_cpp_vendor/lib:/opt/ros/foxy/opt/rviz_ogre_vendor/lib:/opt/ros/foxy/lib/x86_64-linux-gnu:/opt/ros/foxy/lib'), ('HISTIGNORE', '&:[ ]*:exit:ls:bg:fg:history:clear'), ('LESS', '-R'), ('HOME', '/home/salih'), ('OLDPWD', '/home/salih'), ('DESKTOP_SESSION', 'xfce'), ('LSCOLORS', 'Gxfxcxdxdxegedabagacad'), ('ROS_PYTHON_VERSION', '3'), ('GTK_MODULES', 'gail:atk-bridge'), ('XDG_SEAT_PATH', '/org/freedesktop/DisplayManager/Seat0'), ('PAGER', 'less'), ('LC_MONETARY', 'fr_FR.UTF-8'), ('LC_CTYPE', 'fr_FR.UTF-8'), ('DBUS_SESSION_BUS_ADDRESS', 'unix:path=/run/user/1000/bus'), ('COLORTERM', 'truecolor'), ('TERMINATOR_DBUS_NAME', 'net.tenshu.Terminator21a9d5db22c73a993ff0b42f64b396873'), ('_colcon_cd_root', '/opt/ros/humble/'), ('QT_QPA_PLATFORMTHEME', 'qt5ct'), ('COLCON_PREFIX_PATH', '/home/salih/ros2_ws/install'), ('ROS_DISTRO', 'foxy'), ('LOGNAME', 'salih'), ('OSH', '/home/salih/.oh-my-bash'), ('_', '/usr/bin/colcon'), ('ROS_VERSION', '2'), ('XDG_SESSION_CLASS', 'user'), ('CLUTTER_BACKEND', 'x11'), ('TERM', 'xterm-256color'), ('XDG_SESSION_ID', 'c1'), ('ROS_LOCALHOST_ONLY', '1'), ('PATH', '/opt/ros/foxy/bin:/usr/local/sbin:/usr/local/bin:/usr/sbin:/usr/bin:/sbin:/bin:/usr/games:/usr/local/games:/snap/bin:/opt/anaconda3/bin'), ('SESSION_MANAGER', 'local/salih-MacBookPro:@/tmp/.ICE-unix/1169,unix/salih-MacBookPro:/tmp/.ICE-unix/1169'), ('GDM_LANG', 'fr_FR'), ('GTK3_MODULES', 'xapp-gtk3-module'), ('XDG_SESSION_PATH', '/org/freedesktop/DisplayManager/Session0'), ('XDG_MENU_PREFIX', 'xfce-'), ('LC_ADDRESS', 'fr_FR.UTF-8'), ('XDG_RUNTIME_DIR', '/run/user/1000'), ('DISPLAY', ':0.0'), ('HISTSIZE', ''), ('TERMINATOR_DBUS_PATH', '/net/tenshu/Terminator2'), ('LANG', 'fr_FR.UTF-8'), ('XDG_CURRENT_DESKTOP', 'XFCE'), ('LC_TELEPHONE', 'fr_FR.UTF-8'), ('XDG_SESSION_DESKTOP', 'xfce'), ('XAUTHORITY', '/home/salih/.Xauthority'), ('LS_COLORS', 'rs=0:di=01;34:ln=01;36:mh=00:pi=40;33:so=01;35:do=01;35:bd=40;33;01:cd=40;33;01:or=40;31;01:mi=00:su=37;41:sg=30;43:ca=30;41:tw=30;42:ow=34;42:st=37;44:ex=01;32:*.tar=01;31:*.tgz=01;31:*.arc=01;31:*.arj=01;31:*.taz=01;31:*.lha=01;31:*.lz4=01;31:*.lzh=01;31:*.lzma=01;31:*.tlz=01;31:*.txz=01;31:*.tzo=01;31:*.t7z=01;31:*.zip=01;31:*.z=01;31:*.dz=01;31:*.gz=01;31:*.lrz=01;31:*.lz=01;31:*.lzo=01;31:*.xz=01;31:*.zst=01;31:*.tzst=01;31:*.bz2=01;31:*.bz=01;31:*.tbz=01;31:*.tbz2=01;31:*.tz=01;31:*.deb=01;31:*.rpm=01;31:*.jar=01;31:*.war=01;31:*.ear=01;31:*.sar=01;31:*.rar=01;31:*.alz=01;31:*.ace=01;31:*.zoo=01;31:*.cpio=01;31:*.7z=01;31:*.rz=01;31:*.cab=01;31:*.wim=01;31:*.swm=01;31:*.dwm=01;31:*.esd=01;31:*.jpg=01;35:*.jpeg=01;35:*.mjpg=01;35:*.mjpeg=01;35:*.gif=01;35:*.bmp=01;35:*.pbm=01;35:*.pgm=01;35:*.ppm=01;35:*.tga=01;35:*.xbm=01;35:*.xpm=01;35:*.tif=01;35:*.tiff=01;35:*.png=01;35:*.svg=01;35:*.svgz=01;35:*.mng=01;35:*.pcx=01;35:*.mov=01;35:*.mpg=01;35:*.mpeg=01;35:*.m2v=01;35:*.mkv=01;35:*.webm=01;35:*.ogm=01;35:*.mp4=01;35:*.m4v=01;35:*.mp4v=01;35:*.vob=01;35:*.qt=01;35:*.nuv=01;35:*.wmv=01;35:*.asf=01;35:*.rm=01;35:*.rmvb=01;35:*.flc=01;35:*.avi=01;35:*.fli=01;35:*.flv=01;35:*.gl=01;35:*.dl=01;35:*.xcf=01;35:*.xwd=01;35:*.yuv=01;35:*.cgm=01;35:*.emf=01;35:*.ogv=01;35:*.ogx=01;35:*.aac=00;36:*.au=00;36:*.flac=00;36:*.m4a=00;36:*.mid=00;36:*.midi=00;36:*.mka=00;36:*.mp3=00;36:*.mpc=00;36:*.ogg=00;36:*.ra=00;36:*.wav=00;36:*.oga=00;36:*.opus=00;36:*.spx=00;36:*.xspf=00;36:'), ('SSH_AUTH_SOCK', '/tmp/ssh-9sxRk29sIm5o/agent.1169'), ('ROS_DOMAIN_ID', '42'), ('XDG_GREETER_DATA_DIR', '/var/lib/lightdm-data/salih'), ('AMENT_PREFIX_PATH', '/home/salih/ros2_ws/install/tutorial_interfaces:/home/salih/ros2_ws/install/examples_rclcpp_minimal_composition:/home/salih/ros2_ws/install/examples_rclcpp_minimal_client:/home/salih/ros2_ws/install/examples_rclcpp_minimal_action_server:/home/salih/ros2_ws/install/examples_rclcpp_minimal_action_client:/home/salih/ros2_ws/install/turtlesim:/home/salih/ros2_ws/install/py_srvcli:/home/salih/ros2_ws/install/py_pubsub:/home/salih/ros2_ws/install/my_package:/home/salih/ros2_ws/install/examples_rclpy_minimal_subscriber:/home/salih/ros2_ws/install/examples_rclpy_minimal_service:/home/salih/ros2_ws/install/examples_rclpy_minimal_publisher:/home/salih/ros2_ws/install/examples_rclpy_minimal_client:/home/salih/ros2_ws/install/examples_rclpy_minimal_action_server:/home/salih/ros2_ws/install/examples_rclpy_minimal_action_client:/home/salih/ros2_ws/install/examples_rclpy_executors:/home/salih/ros2_ws/install/examples_rclcpp_multithreaded_executor:/home/salih/ros2_ws/install/examples_rclcpp_minimal_timer:/home/salih/ros2_ws/install/examples_rclcpp_minimal_subscriber:/home/salih/ros2_ws/install/examples_rclcpp_minimal_service:/home/salih/ros2_ws/install/examples_rclcpp_minimal_publisher:/home/salih/ros2_ws/install/cpp_srvcli:/home/salih/ros2_ws/install/cpp_pubsub:/opt/ros/foxy'), ('SHELL', '/bin/bash'), ('LC_NAME', 'fr_FR.UTF-8'), ('TERMINATOR_UUID', 'urn:uuid:279cd8d0-f4f4-41b2-a1b1-b3bcffe9aea6'), ('QT_ACCESSIBILITY', '1'), ('GDMSESSION', 'xfce'), ('LESSCLOSE', '/usr/bin/lesspipe %s %s'), ('LC_MEASUREMENT', 'fr_FR.UTF-8'), ('LC_IDENTIFICATION', 'fr_FR.UTF-8'), ('XDG_VTNR', '7'), ('PWD', '/home/salih/ros2_ws/build/cpp_pubsub'), ('XDG_CONFIG_DIRS', '/etc/xdg/xdg-xfce:/etc/xdg:/etc/xdg'), ('XDG_DATA_DIRS', '/usr/share/xfce4:/home/salih/.local/share/flatpak/exports/share:/var/lib/flatpak/exports/share:/usr/local/share:/usr/share:/usr/share'), ('PYTHONPATH', '/home/salih/ros2_ws/install/tutorial_interfaces/lib/python3.8/site-packages:/home/salih/ros2_ws/build/py_srvcli:/home/salih/ros2_ws/build/py_pubsub:/home/salih/ros2_ws/build/examples_rclpy_minimal_subscriber:/home/salih/ros2_ws/build/examples_rclpy_minimal_service:/home/salih/ros2_ws/build/examples_rclpy_minimal_publisher:/home/salih/ros2_ws/build/examples_rclpy_minimal_client:/home/salih/ros2_ws/build/examples_rclpy_minimal_action_server:/home/salih/ros2_ws/build/examples_rclpy_minimal_action_client:/home/salih/ros2_ws/build/examples_rclpy_executors:/home/salih/ros2_ws/install/turtlesim/lib/python3.8/site-packages:/home/salih/ros2_ws/install/py_srvcli/lib/python3.8/site-packages:/home/salih/ros2_ws/install/py_pubsub/lib/python3.8/site-packages:/home/salih/ros2_ws/install/examples_rclpy_minimal_subscriber/lib/python3.8/site-packages:/home/salih/ros2_ws/install/examples_rclpy_minimal_service/lib/python3.8/site-packages:/home/salih/ros2_ws/install/examples_rclpy_minimal_publisher/lib/python3.8/site-packages:/home/salih/ros2_ws/install/examples_rclpy_minimal_client/lib/python3.8/site-packages:/home/salih/ros2_ws/install/examples_rclpy_minimal_action_server/lib/python3.8/site-packages:/home/salih/ros2_ws/install/examples_rclpy_minimal_action_client/lib/python3.8/site-packages:/home/salih/ros2_ws/install/examples_rclpy_executors/lib/python3.8/site-packages:/opt/ros/foxy/lib/python3.8/site-packages'), ('LC_NUMERIC', 'fr_FR.UTF-8'), ('LC_PAPER', 'fr_FR.UTF-8'), ('COLCON', '1'), ('VTE_VERSION', '6003'), ('CMAKE_PREFIX_PATH', '/home/salih/ros2_ws/install/tutorial_interfaces:/home/salih/ros2_ws/install/turtlesim:/home/salih/ros2_ws/install/my_package:/home/salih/ros2_ws/install/examples_rclcpp_multithreaded_executor:/home/salih/ros2_ws/install/examples_rclcpp_minimal_timer:/home/salih/ros2_ws/install/examples_rclcpp_minimal_subscriber:/home/salih/ros2_ws/install/examples_rclcpp_minimal_service:/home/salih/ros2_ws/install/examples_rclcpp_minimal_publisher:/home/salih/ros2_ws/install/examples_rclcpp_minimal_composition:/home/salih/ros2_ws/install/examples_rclcpp_minimal_client:/home/salih/ros2_ws/install/examples_rclcpp_minimal_action_server:/home/salih/ros2_ws/install/examples_rclcpp_minimal_action_client:/home/salih/ros2_ws/install/cpp_srvcli:/home/salih/ros2_ws/install/cpp_pubsub:/home/salih/ros2_ws/install/py_srvcli:/home/salih/ros2_ws/install/py_pubsub:/home/salih/ros2_ws/install/examples_rclpy_minimal_subscriber:/home/salih/ros2_ws/install/examples_rclpy_minimal_service:/home/salih/ros2_ws/install/examples_rclpy_minimal_publisher:/home/salih/ros2_ws/install/examples_rclpy_minimal_client:/home/salih/ros2_ws/install/examples_rclpy_minimal_action_server:/home/salih/ros2_ws/install/examples_rclpy_minimal_action_client:/home/salih/ros2_ws/install/examples_rclpy_executors:/opt/ros/foxy')]), 'shell': False}
[4.365172] (cpp_pubsub) StdoutLine: {'line': b'-- Install configuration: ""\n'}
[4.365560] (cpp_pubsub) StdoutLine: {'line': b'-- Execute custom install script\n'}
[4.365921] (cpp_pubsub) StdoutLine: {'line': b'-- Up-to-date symlink: /home/salih/ros2_ws/install/cpp_pubsub/lib/cpp_pubsub/talker\n'}
[4.366112] (cpp_pubsub) StdoutLine: {'line': b'-- Up-to-date symlink: /home/salih/ros2_ws/install/cpp_pubsub/lib/cpp_pubsub/listener\n'}
[4.366413] (cpp_pubsub) StdoutLine: {'line': b'-- Up-to-date symlink: /home/salih/ros2_ws/install/cpp_pubsub/share/ament_index/resource_index/package_run_dependencies/cpp_pubsub\n'}
[4.366610] (cpp_pubsub) StdoutLine: {'line': b'-- Up-to-date symlink: /home/salih/ros2_ws/install/cpp_pubsub/share/ament_index/resource_index/parent_prefix_path/cpp_pubsub\n'}
[4.366865] (cpp_pubsub) StdoutLine: {'line': b'-- Up-to-date symlink: /home/salih/ros2_ws/install/cpp_pubsub/share/cpp_pubsub/environment/ament_prefix_path.sh\n'}
[4.367072] (cpp_pubsub) StdoutLine: {'line': b'-- Up-to-date symlink: /home/salih/ros2_ws/install/cpp_pubsub/share/cpp_pubsub/environment/ament_prefix_path.dsv\n'}
[4.367378] (cpp_pubsub) StdoutLine: {'line': b'-- Up-to-date symlink: /home/salih/ros2_ws/install/cpp_pubsub/share/cpp_pubsub/environment/path.sh\n'}
[4.367665] (cpp_pubsub) StdoutLine: {'line': b'-- Up-to-date symlink: /home/salih/ros2_ws/install/cpp_pubsub/share/cpp_pubsub/environment/path.dsv\n'}
[4.367921] (cpp_pubsub) StdoutLine: {'line': b'-- Up-to-date symlink: /home/salih/ros2_ws/install/cpp_pubsub/share/cpp_pubsub/local_setup.bash\n'}
[4.368221] (cpp_pubsub) StdoutLine: {'line': b'-- Up-to-date symlink: /home/salih/ros2_ws/install/cpp_pubsub/share/cpp_pubsub/local_setup.sh\n'}
[4.368433] (cpp_pubsub) StdoutLine: {'line': b'-- Up-to-date symlink: /home/salih/ros2_ws/install/cpp_pubsub/share/cpp_pubsub/local_setup.zsh\n'}
[4.368664] (cpp_pubsub) StdoutLine: {'line': b'-- Up-to-date symlink: /home/salih/ros2_ws/install/cpp_pubsub/share/cpp_pubsub/local_setup.dsv\n'}
[4.368908] (cpp_pubsub) StdoutLine: {'line': b'-- Symlinking: /home/salih/ros2_ws/install/cpp_pubsub/share/cpp_pubsub/package.dsv\n'}
[4.376442] (cpp_pubsub) StdoutLine: {'line': b'-- Up-to-date symlink: /home/salih/ros2_ws/install/cpp_pubsub/share/ament_index/resource_index/packages/cpp_pubsub\n'}
[4.376587] (cpp_pubsub) StdoutLine: {'line': b'-- Up-to-date symlink: /home/salih/ros2_ws/install/cpp_pubsub/share/cpp_pubsub/cmake/cpp_pubsubConfig.cmake\n'}
[4.376696] (cpp_pubsub) StdoutLine: {'line': b'-- Up-to-date symlink: /home/salih/ros2_ws/install/cpp_pubsub/share/cpp_pubsub/cmake/cpp_pubsubConfig-version.cmake\n'}
[4.377039] (cpp_pubsub) StdoutLine: {'line': b'-- Up-to-date symlink: /home/salih/ros2_ws/install/cpp_pubsub/share/cpp_pubsub/package.xml\n'}
[4.378771] (cpp_pubsub) CommandEnded: {'returncode': 0}
[4.415307] (-) TimerEvent: {}
[4.422083] (cpp_pubsub) JobEnded: {'identifier': 'cpp_pubsub', 'rc': 0}
[4.422612] (-) EventReactorShutdown: {}
