Invoking command in '/home/salih/ros2_ws/build/examples_rclcpp_minimal_composition': CMAKE_PREFIX_PATH=${CMAKE_PREFIX_PATH}:/home/salih/ros2_ws/install/examples_rclpy_minimal_subscriber:/home/salih/ros2_ws/install/examples_rclpy_minimal_service:/home/salih/ros2_ws/install/examples_rclpy_minimal_publisher:/home/salih/ros2_ws/install/examples_rclpy_minimal_client:/home/salih/ros2_ws/install/examples_rclpy_minimal_action_server:/home/salih/ros2_ws/install/examples_rclpy_minimal_action_client:/home/salih/ros2_ws/install/examples_rclpy_executors:/opt/ros/foxy COMP_WORDBREAKS=
"'><=;|&( /usr/bin/cmake --build /home/salih/ros2_ws/build/examples_rclcpp_minimal_composition -- -j8 -l8
Invoked command in '/home/salih/ros2_ws/build/examples_rclcpp_minimal_composition' returned '0': CMAKE_PREFIX_PATH=${CMAKE_PREFIX_PATH}:/home/salih/ros2_ws/install/examples_rclpy_minimal_subscriber:/home/salih/ros2_ws/install/examples_rclpy_minimal_service:/home/salih/ros2_ws/install/examples_rclpy_minimal_publisher:/home/salih/ros2_ws/install/examples_rclpy_minimal_client:/home/salih/ros2_ws/install/examples_rclpy_minimal_action_server:/home/salih/ros2_ws/install/examples_rclpy_minimal_action_client:/home/salih/ros2_ws/install/examples_rclpy_executors:/opt/ros/foxy COMP_WORDBREAKS=
"'><=;|&( /usr/bin/cmake --build /home/salih/ros2_ws/build/examples_rclcpp_minimal_composition -- -j8 -l8
Invoking command in '/home/salih/ros2_ws/build/examples_rclcpp_minimal_composition': CMAKE_PREFIX_PATH=${CMAKE_PREFIX_PATH}:/home/salih/ros2_ws/install/examples_rclpy_minimal_subscriber:/home/salih/ros2_ws/install/examples_rclpy_minimal_service:/home/salih/ros2_ws/install/examples_rclpy_minimal_publisher:/home/salih/ros2_ws/install/examples_rclpy_minimal_client:/home/salih/ros2_ws/install/examples_rclpy_minimal_action_server:/home/salih/ros2_ws/install/examples_rclpy_minimal_action_client:/home/salih/ros2_ws/install/examples_rclpy_executors:/opt/ros/foxy COMP_WORDBREAKS=
"'><=;|&( /usr/bin/cmake --install /home/salih/ros2_ws/build/examples_rclcpp_minimal_composition
Invoked command in '/home/salih/ros2_ws/build/examples_rclcpp_minimal_composition' returned '0': CMAKE_PREFIX_PATH=${CMAKE_PREFIX_PATH}:/home/salih/ros2_ws/install/examples_rclpy_minimal_subscriber:/home/salih/ros2_ws/install/examples_rclpy_minimal_service:/home/salih/ros2_ws/install/examples_rclpy_minimal_publisher:/home/salih/ros2_ws/install/examples_rclpy_minimal_client:/home/salih/ros2_ws/install/examples_rclpy_minimal_action_server:/home/salih/ros2_ws/install/examples_rclpy_minimal_action_client:/home/salih/ros2_ws/install/examples_rclpy_executors:/opt/ros/foxy COMP_WORDBREAKS=
"'><=;|&( /usr/bin/cmake --install /home/salih/ros2_ws/build/examples_rclcpp_minimal_composition
