[0.986s] Invoking command in '/home/salih/ros2_ws/src/examples/rclpy/services/minimal_client': AMENT_PREFIX_PATH=/home/salih/ros2_ws/install/examples_rclpy_minimal_client:/home/salih/ros2_ws/install/turtlesim:/home/salih/ros2_ws/install/py_srvcli:/home/salih/ros2_ws/install/py_pubsub:/home/salih/ros2_ws/install/my_package:/home/salih/ros2_ws/install/examples_rclpy_minimal_subscriber:/home/salih/ros2_ws/install/examples_rclpy_minimal_service:/home/salih/ros2_ws/install/examples_rclpy_minimal_publisher:/home/salih/ros2_ws/install/examples_rclpy_minimal_action_server:/home/salih/ros2_ws/install/examples_rclpy_minimal_action_client:/home/salih/ros2_ws/install/examples_rclpy_executors:/home/salih/ros2_ws/install/examples_rclcpp_multithreaded_executor:/home/salih/ros2_ws/install/examples_rclcpp_minimal_timer:/home/salih/ros2_ws/install/examples_rclcpp_minimal_subscriber:/home/salih/ros2_ws/install/examples_rclcpp_minimal_service:/home/salih/ros2_ws/install/examples_rclcpp_minimal_publisher:/home/salih/ros2_ws/install/cpp_srvcli:/home/salih/ros2_ws/install/cpp_pubsub:/opt/ros/foxy COMP_WORDBREAKS=
"'><=;|&( PYTEST_ADDOPTS=--tb=short --junit-xml=/home/salih/ros2_ws/build/examples_rclpy_minimal_client/pytest.xml --junit-prefix=examples_rclpy_minimal_client -o cache_dir=/home/salih/ros2_ws/build/examples_rclpy_minimal_client/.pytest_cache PYTHONPATH=/home/salih/ros2_ws/install/examples_rclpy_minimal_client/lib/python3.8/site-packages:/home/salih/ros2_ws/install/turtlesim/lib/python3.8/site-packages:/home/salih/ros2_ws/install/py_srvcli/lib/python3.8/site-packages:/home/salih/ros2_ws/install/py_pubsub/lib/python3.8/site-packages:/home/salih/ros2_ws/install/examples_rclpy_minimal_subscriber/lib/python3.8/site-packages:/home/salih/ros2_ws/install/examples_rclpy_minimal_service/lib/python3.8/site-packages:/home/salih/ros2_ws/install/examples_rclpy_minimal_publisher/lib/python3.8/site-packages:/home/salih/ros2_ws/install/examples_rclpy_minimal_action_server/lib/python3.8/site-packages:/home/salih/ros2_ws/install/examples_rclpy_minimal_action_client/lib/python3.8/site-packages:/home/salih/ros2_ws/install/examples_rclpy_executors/lib/python3.8/site-packages:/opt/ros/foxy/lib/python3.8/site-packages /usr/bin/python3 -m pytest
[1.584s] [1m============================= test session starts ==============================[0m
[1.584s] platform linux -- Python 3.8.10, pytest-4.6.9, py-1.8.1, pluggy-0.13.0
[1.592s] cachedir: /home/salih/ros2_ws/build/examples_rclpy_minimal_client/.pytest_cache
[1.592s] rootdir: /home/salih/ros2_ws/src/examples/rclpy, inifile: pytest.ini
[1.592s] plugins: ament-pep257-0.9.7, ament-flake8-0.9.7, ament-copyright-0.9.7, ament-xmllint-0.9.7, ament-lint-0.9.7, launch-testing-0.10.10, launch-testing-ros-0.11.7, colcon-core-0.11.0, cov-2.8.1
[1.694s] [1mcollecting ... [0m[1m
[1.694s] collected 3 items                                                              [0m
[1.694s] 
[1.715s] test/test_copyright.py [32m.[0m[36m                                                 [ 33%][0m
[1.841s] test/test_flake8.py [32m.[0m[36m                                                    [ 66%][0m
[1.882s] test/test_pep257.py [32m.[0m[36m                                                    [100%][0m
[1.882s] 
[1.882s] [33m=============================== warnings summary ===============================[0m
[1.882s] /usr/lib/python3/dist-packages/pydocstyle/config.py:6
[1.882s]   Warning: Using or importing the ABCs from 'collections' instead of from 'collections.abc' is deprecated since Python 3.3, and in 3.10 it will stop working
[1.882s] 
[1.882s] -- Docs: https://docs.pytest.org/en/latest/warnings.html
[1.882s] - generated xml file: /home/salih/ros2_ws/build/examples_rclpy_minimal_client/pytest.xml -
[1.883s] [33m[1m===================== 3 passed, 1 warnings in 0.30 seconds =====================[0m
[2.047s] Invoked command in '/home/salih/ros2_ws/src/examples/rclpy/services/minimal_client' returned '0': AMENT_PREFIX_PATH=/home/salih/ros2_ws/install/examples_rclpy_minimal_client:/home/salih/ros2_ws/install/turtlesim:/home/salih/ros2_ws/install/py_srvcli:/home/salih/ros2_ws/install/py_pubsub:/home/salih/ros2_ws/install/my_package:/home/salih/ros2_ws/install/examples_rclpy_minimal_subscriber:/home/salih/ros2_ws/install/examples_rclpy_minimal_service:/home/salih/ros2_ws/install/examples_rclpy_minimal_publisher:/home/salih/ros2_ws/install/examples_rclpy_minimal_action_server:/home/salih/ros2_ws/install/examples_rclpy_minimal_action_client:/home/salih/ros2_ws/install/examples_rclpy_executors:/home/salih/ros2_ws/install/examples_rclcpp_multithreaded_executor:/home/salih/ros2_ws/install/examples_rclcpp_minimal_timer:/home/salih/ros2_ws/install/examples_rclcpp_minimal_subscriber:/home/salih/ros2_ws/install/examples_rclcpp_minimal_service:/home/salih/ros2_ws/install/examples_rclcpp_minimal_publisher:/home/salih/ros2_ws/install/cpp_srvcli:/home/salih/ros2_ws/install/cpp_pubsub:/opt/ros/foxy COMP_WORDBREAKS=
"'><=;|&( PYTEST_ADDOPTS=--tb=short --junit-xml=/home/salih/ros2_ws/build/examples_rclpy_minimal_client/pytest.xml --junit-prefix=examples_rclpy_minimal_client -o cache_dir=/home/salih/ros2_ws/build/examples_rclpy_minimal_client/.pytest_cache PYTHONPATH=/home/salih/ros2_ws/install/examples_rclpy_minimal_client/lib/python3.8/site-packages:/home/salih/ros2_ws/install/turtlesim/lib/python3.8/site-packages:/home/salih/ros2_ws/install/py_srvcli/lib/python3.8/site-packages:/home/salih/ros2_ws/install/py_pubsub/lib/python3.8/site-packages:/home/salih/ros2_ws/install/examples_rclpy_minimal_subscriber/lib/python3.8/site-packages:/home/salih/ros2_ws/install/examples_rclpy_minimal_service/lib/python3.8/site-packages:/home/salih/ros2_ws/install/examples_rclpy_minimal_publisher/lib/python3.8/site-packages:/home/salih/ros2_ws/install/examples_rclpy_minimal_action_server/lib/python3.8/site-packages:/home/salih/ros2_ws/install/examples_rclpy_minimal_action_client/lib/python3.8/site-packages:/home/salih/ros2_ws/install/examples_rclpy_executors/lib/python3.8/site-packages:/opt/ros/foxy/lib/python3.8/site-packages /usr/bin/python3 -m pytest
