[0.061s] Invoking command in '/home/salih/ros2_ws/build/examples_rclcpp_minimal_client': CMAKE_PREFIX_PATH=${CMAKE_PREFIX_PATH}:/home/salih/ros2_ws/install/py_srvcli:/home/salih/ros2_ws/install/py_pubsub:/home/salih/ros2_ws/install/examples_rclpy_minimal_subscriber:/home/salih/ros2_ws/install/examples_rclpy_minimal_service:/home/salih/ros2_ws/install/examples_rclpy_minimal_publisher:/home/salih/ros2_ws/install/examples_rclpy_minimal_client:/home/salih/ros2_ws/install/examples_rclpy_minimal_action_server:/home/salih/ros2_ws/install/examples_rclpy_minimal_action_client:/home/salih/ros2_ws/install/examples_rclpy_executors:/opt/ros/foxy COMP_WORDBREAKS=
"'><=;|&( /usr/bin/cmake --build /home/salih/ros2_ws/build/examples_rclcpp_minimal_client -- -j8 -l8
[0.108s] CMake Error: The source directory "/home/salih/ros2_ws/src/src/examples/rclcpp/services/minimal_client" does not exist.
[0.108s] Specify --help for usage, or press the help button on the CMake GUI.
[0.108s] make: *** [Makefile:266: cmake_check_build_system] Error 1
[0.121s] Invoked command in '/home/salih/ros2_ws/build/examples_rclcpp_minimal_client' returned '2': CMAKE_PREFIX_PATH=${CMAKE_PREFIX_PATH}:/home/salih/ros2_ws/install/py_srvcli:/home/salih/ros2_ws/install/py_pubsub:/home/salih/ros2_ws/install/examples_rclpy_minimal_subscriber:/home/salih/ros2_ws/install/examples_rclpy_minimal_service:/home/salih/ros2_ws/install/examples_rclpy_minimal_publisher:/home/salih/ros2_ws/install/examples_rclpy_minimal_client:/home/salih/ros2_ws/install/examples_rclpy_minimal_action_server:/home/salih/ros2_ws/install/examples_rclpy_minimal_action_client:/home/salih/ros2_ws/install/examples_rclpy_executors:/opt/ros/foxy COMP_WORDBREAKS=
"'><=;|&( /usr/bin/cmake --build /home/salih/ros2_ws/build/examples_rclcpp_minimal_client -- -j8 -l8
