Invoking command in '/home/salih/ros2_ws/build/cpp_parameters': CMAKE_PREFIX_PATH=${CMAKE_PREFIX_PATH}:/home/salih/ros2_ws/install/py_srvcli:/home/salih/ros2_ws/install/py_pubsub:/home/salih/ros2_ws/install/examples_rclpy_minimal_subscriber:/home/salih/ros2_ws/install/examples_rclpy_minimal_service:/home/salih/ros2_ws/install/examples_rclpy_minimal_publisher:/home/salih/ros2_ws/install/examples_rclpy_minimal_client:/home/salih/ros2_ws/install/examples_rclpy_minimal_action_server:/home/salih/ros2_ws/install/examples_rclpy_minimal_action_client:/home/salih/ros2_ws/install/examples_rclpy_executors:/opt/ros/foxy COMP_WORDBREAKS=
"'><=;|&( /usr/bin/cmake --build /home/salih/ros2_ws/build/cpp_parameters -- -j8 -l8
Invoked command in '/home/salih/ros2_ws/build/cpp_parameters' returned '0': CMAKE_PREFIX_PATH=${CMAKE_PREFIX_PATH}:/home/salih/ros2_ws/install/py_srvcli:/home/salih/ros2_ws/install/py_pubsub:/home/salih/ros2_ws/install/examples_rclpy_minimal_subscriber:/home/salih/ros2_ws/install/examples_rclpy_minimal_service:/home/salih/ros2_ws/install/examples_rclpy_minimal_publisher:/home/salih/ros2_ws/install/examples_rclpy_minimal_client:/home/salih/ros2_ws/install/examples_rclpy_minimal_action_server:/home/salih/ros2_ws/install/examples_rclpy_minimal_action_client:/home/salih/ros2_ws/install/examples_rclpy_executors:/opt/ros/foxy COMP_WORDBREAKS=
"'><=;|&( /usr/bin/cmake --build /home/salih/ros2_ws/build/cpp_parameters -- -j8 -l8
Invoking command in '/home/salih/ros2_ws/build/cpp_parameters': CMAKE_PREFIX_PATH=${CMAKE_PREFIX_PATH}:/home/salih/ros2_ws/install/py_srvcli:/home/salih/ros2_ws/install/py_pubsub:/home/salih/ros2_ws/install/examples_rclpy_minimal_subscriber:/home/salih/ros2_ws/install/examples_rclpy_minimal_service:/home/salih/ros2_ws/install/examples_rclpy_minimal_publisher:/home/salih/ros2_ws/install/examples_rclpy_minimal_client:/home/salih/ros2_ws/install/examples_rclpy_minimal_action_server:/home/salih/ros2_ws/install/examples_rclpy_minimal_action_client:/home/salih/ros2_ws/install/examples_rclpy_executors:/opt/ros/foxy COMP_WORDBREAKS=
"'><=;|&( /usr/bin/cmake --install /home/salih/ros2_ws/build/cpp_parameters
Invoked command in '/home/salih/ros2_ws/build/cpp_parameters' returned '0': CMAKE_PREFIX_PATH=${CMAKE_PREFIX_PATH}:/home/salih/ros2_ws/install/py_srvcli:/home/salih/ros2_ws/install/py_pubsub:/home/salih/ros2_ws/install/examples_rclpy_minimal_subscriber:/home/salih/ros2_ws/install/examples_rclpy_minimal_service:/home/salih/ros2_ws/install/examples_rclpy_minimal_publisher:/home/salih/ros2_ws/install/examples_rclpy_minimal_client:/home/salih/ros2_ws/install/examples_rclpy_minimal_action_server:/home/salih/ros2_ws/install/examples_rclpy_minimal_action_client:/home/salih/ros2_ws/install/examples_rclpy_executors:/opt/ros/foxy COMP_WORDBREAKS=
"'><=;|&( /usr/bin/cmake --install /home/salih/ros2_ws/build/cpp_parameters
