CMake Error: The source directory "/home/salih/ros2_ws/src/src/examples/rclcpp/services/minimal_service" does not exist.
Specify --help for usage, or press the help button on the CMake GUI.
make: *** [Makefile:266: cmake_check_build_system] Error 1
