[0.131s] Invoking command in '/home/salih/ros2_ws/build/examples_rclcpp_minimal_publisher': CMAKE_PREFIX_PATH=/home/salih/ros2_ws/install/examples_rclcpp_minimal_publisher:/home/salih/ros2_ws/install/turtlesim:/home/salih/ros2_ws/install/my_package:/home/salih/ros2_ws/install/examples_rclcpp_multithreaded_executor:/home/salih/ros2_ws/install/examples_rclcpp_minimal_timer:/home/salih/ros2_ws/install/examples_rclcpp_minimal_subscriber:/home/salih/ros2_ws/install/examples_rclcpp_minimal_service:/home/salih/ros2_ws/install/examples_rclcpp_minimal_composition:/home/salih/ros2_ws/install/examples_rclcpp_minimal_client:/home/salih/ros2_ws/install/examples_rclcpp_minimal_action_server:/home/salih/ros2_ws/install/examples_rclcpp_minimal_action_client:/home/salih/ros2_ws/install/cpp_srvcli:/home/salih/ros2_ws/install/cpp_pubsub COMP_WORDBREAKS=
"'><=;|&( /usr/bin/ctest -C Release -D ExperimentalTest --no-compress-output -V --force-new-ctest-process
[0.140s] UpdateCTestConfiguration  from :/home/salih/ros2_ws/build/examples_rclcpp_minimal_publisher/CTestConfiguration.ini
[0.140s] Parse Config file:/home/salih/ros2_ws/build/examples_rclcpp_minimal_publisher/CTestConfiguration.ini
[0.140s]    Site: salih-MacBookPro
[0.140s]    Build name: (empty)
[0.140s]  Add coverage exclude regular expressions.
[0.140s] SetCTestConfiguration:CMakeCommand:/usr/bin/cmake
[0.140s] Create new tag: 20221118-0730 - Experimental
[0.140s] UpdateCTestConfiguration  from :/home/salih/ros2_ws/build/examples_rclcpp_minimal_publisher/CTestConfiguration.ini
[0.140s] Parse Config file:/home/salih/ros2_ws/build/examples_rclcpp_minimal_publisher/CTestConfiguration.ini
[0.140s] Test project /home/salih/ros2_ws/build/examples_rclcpp_minimal_publisher
[0.141s] Constructing a list of tests
[0.141s] Done constructing a list of tests
[0.141s] Updating test list for fixtures
[0.141s] Added 0 tests to meet fixture requirements
[0.141s] Checking test dependency graph...
[0.141s] Failed to change working directory to /home/salih/ros2_ws/src/src/examples/rclcpp/topics/minimal_publisher : No such file or directory
[0.141s] Checking test dependency graph end
[0.141s] test 1
[0.141s]     Start 1: copyright
[0.141s] 1/6 Test #1: copyright ........................***Not Run   0.00 sec
[0.142s] test 2
[0.142s]     Start 2: cppcheck
[0.142s] 2/6 Test #2: cppcheck .........................***Not Run   0.00 sec
[0.142s] test 3
[0.142s]     Start 3: cpplint
[0.142s] 3/6 Test #3: cpplint ..........................***Not Run   0.00 sec
[0.142s] test 4
[0.142s]     Start 4: lint_cmake
[0.142s] 4/6 Test #4: lint_cmake .......................***Not Run   0.00 sec
[0.142s] test 5
[0.142s]     Start 5: uncrustify
[0.142s] 5/6 Test #5: uncrustify .......................***Not Run   0.00 sec
[0.143s] test 6
[0.143s]     Start 6: xmllint
[0.143s] 6/6 Test #6: xmllint ..........................***Not Run   0.00 sec
[0.143s] 
[0.143s] 0% tests passed[0;0m, [0;31m6 tests failed[0;0m out of 6
[0.143s] 
[0.143s] Label Time Summary:
[0.143s] copyright     =   0.00 sec*proc (1 test)
[0.143s] cppcheck      =   0.00 sec*proc (1 test)
[0.144s] cpplint       =   0.00 sec*proc (1 test)
[0.144s] lint_cmake    =   0.00 sec*proc (1 test)
[0.144s] linter        =   0.00 sec*proc (6 tests)
[0.144s] uncrustify    =   0.00 sec*proc (1 test)
[0.144s] xmllint       =   0.00 sec*proc (1 test)
[0.145s] 
[0.146s] Total Test time (real) =   0.00 sec
[0.146s] 
[0.146s] The following tests FAILED:
[0.147s] 	[0;33m  1 - copyright (Not Run)[0;0m
[0.147s] 	[0;33m  2 - cppcheck (Not Run)[0;0m
[0.147s] 	[0;33m  3 - cpplint (Not Run)[0;0m
[0.147s] 	[0;33m  4 - lint_cmake (Not Run)[0;0m
[0.147s] 	[0;33m  5 - uncrustify (Not Run)[0;0m
[0.147s] 	[0;33m  6 - xmllint (Not Run)[0;0m
[0.147s] Failed to change working directory to /home/salih/ros2_ws/src/src/examples/rclcpp/topics/minimal_publisher : No such file or directory
[0.148s] Failed to change working directory to /home/salih/ros2_ws/src/src/examples/rclcpp/topics/minimal_publisher : No such file or directory
[0.148s] Failed to change working directory to /home/salih/ros2_ws/src/src/examples/rclcpp/topics/minimal_publisher : No such file or directory
[0.149s] Failed to change working directory to /home/salih/ros2_ws/src/src/examples/rclcpp/topics/minimal_publisher : No such file or directory
[0.149s] Failed to change working directory to /home/salih/ros2_ws/src/src/examples/rclcpp/topics/minimal_publisher : No such file or directory
[0.149s] Errors while running CTest
[0.177s] Invoked command in '/home/salih/ros2_ws/build/examples_rclcpp_minimal_publisher' returned '8': CMAKE_PREFIX_PATH=/home/salih/ros2_ws/install/examples_rclcpp_minimal_publisher:/home/salih/ros2_ws/install/turtlesim:/home/salih/ros2_ws/install/my_package:/home/salih/ros2_ws/install/examples_rclcpp_multithreaded_executor:/home/salih/ros2_ws/install/examples_rclcpp_minimal_timer:/home/salih/ros2_ws/install/examples_rclcpp_minimal_subscriber:/home/salih/ros2_ws/install/examples_rclcpp_minimal_service:/home/salih/ros2_ws/install/examples_rclcpp_minimal_composition:/home/salih/ros2_ws/install/examples_rclcpp_minimal_client:/home/salih/ros2_ws/install/examples_rclcpp_minimal_action_server:/home/salih/ros2_ws/install/examples_rclcpp_minimal_action_client:/home/salih/ros2_ws/install/cpp_srvcli:/home/salih/ros2_ws/install/cpp_pubsub COMP_WORDBREAKS=
"'><=;|&( /usr/bin/ctest -C Release -D ExperimentalTest --no-compress-output -V --force-new-ctest-process
