[0.014s] Invoking command in '/home/salih/ros2_ws/build/more_interfaces': CMAKE_PREFIX_PATH=${CMAKE_PREFIX_PATH}:/home/salih/ros2_ws/install/py_srvcli:/home/salih/ros2_ws/install/py_pubsub:/home/salih/ros2_ws/install/examples_rclpy_minimal_subscriber:/home/salih/ros2_ws/install/examples_rclpy_minimal_service:/home/salih/ros2_ws/install/examples_rclpy_minimal_publisher:/home/salih/ros2_ws/install/examples_rclpy_minimal_client:/home/salih/ros2_ws/install/examples_rclpy_minimal_action_server:/home/salih/ros2_ws/install/examples_rclpy_minimal_action_client:/home/salih/ros2_ws/install/examples_rclpy_executors:/opt/ros/foxy COMP_WORDBREAKS=
"'><=;|&( /usr/bin/cmake --build /home/salih/ros2_ws/build/more_interfaces -- -j8 -l8
[0.037s] -- Found ament_cmake: 0.9.11 (/opt/ros/foxy/share/ament_cmake/cmake)
[0.065s] -- Using PYTHON_EXECUTABLE: /usr/bin/python3
[0.257s] -- Found rclcpp: 2.4.2 (/opt/ros/foxy/share/rclcpp/cmake)
[0.288s] -- Using all available rosidl_typesupport_c: rosidl_typesupport_fastrtps_c;rosidl_typesupport_introspection_c
[0.291s] -- Found rosidl_adapter: 1.3.0 (/opt/ros/foxy/share/rosidl_adapter/cmake)
[0.400s] -- Using all available rosidl_typesupport_cpp: rosidl_typesupport_fastrtps_cpp;rosidl_typesupport_introspection_cpp
[0.444s] -- Found rmw_implementation_cmake: 1.0.3 (/opt/ros/foxy/share/rmw_implementation_cmake/cmake)
[0.445s] -- Using RMW implementation 'rmw_fastrtps_cpp' as default
[0.570s] -- Found rosidl_default_generators: 1.0.1 (/opt/ros/foxy/share/rosidl_default_generators/cmake)
[0.581s] CMake Error at /opt/ros/foxy/share/rosidl_cmake/cmake/rosidl_generate_interfaces.cmake:93 (message):
[0.581s]   rosidl_generate_interfaces() the passed file '{msg_files}' doesn't exist
[0.581s]   relative to the CMAKE_CURRENT_SOURCE_DIR
[0.581s]   '/home/salih/ros2_ws/src/more_interfaces'
[0.581s] Call Stack (most recent call first):
[0.581s]   CMakeLists.txt:26 (rosidl_generate_interfaces)
[0.581s] 
[0.581s] 
[0.582s] -- Configuring incomplete, errors occurred!
[0.582s] See also "/home/salih/ros2_ws/build/more_interfaces/CMakeFiles/CMakeOutput.log".
[0.582s] See also "/home/salih/ros2_ws/build/more_interfaces/CMakeFiles/CMakeError.log".
[0.586s] make: *** [Makefile:222: cmake_check_build_system] Error 1
[0.589s] Invoked command in '/home/salih/ros2_ws/build/more_interfaces' returned '2': CMAKE_PREFIX_PATH=${CMAKE_PREFIX_PATH}:/home/salih/ros2_ws/install/py_srvcli:/home/salih/ros2_ws/install/py_pubsub:/home/salih/ros2_ws/install/examples_rclpy_minimal_subscriber:/home/salih/ros2_ws/install/examples_rclpy_minimal_service:/home/salih/ros2_ws/install/examples_rclpy_minimal_publisher:/home/salih/ros2_ws/install/examples_rclpy_minimal_client:/home/salih/ros2_ws/install/examples_rclpy_minimal_action_server:/home/salih/ros2_ws/install/examples_rclpy_minimal_action_client:/home/salih/ros2_ws/install/examples_rclpy_executors:/opt/ros/foxy COMP_WORDBREAKS=
"'><=;|&( /usr/bin/cmake --build /home/salih/ros2_ws/build/more_interfaces -- -j8 -l8
